@relation UserCommSongs

@attribute distance numeric
@attribute artist string
@attribute dancebility numeric
@attribute energy numeric
@attribute loudness numeric
@attribute songHotness numeric
@attribute artistHotness numeric
@attribute artistFamiliarity numeric
@attribute preference {Once,Repeat,Loved}

@data
1,'Gustavo Cerati',0.49307,0.600751,-5.458,0.48078,0.709911,0.613481,Once
1,'Jonas Brothers',0.590039,0.683972,-3.877,0.461598,0.640631,0.683686,Once
1,'Little Joy',0.653185,0.211863,-14.074,0.449403,0.557912,0.537326,Repeat
1,M83,0.37592,0.816934,-5.531,0.402511,0.786928,0.729051,Once
1,Cartola,0.640472,0.494341,-9.454,0.269796,0.548751,0.565243,Once
1,Cartola,0.728747,0.375093,-14.419,0.271358,0.548751,0.565243,Repeat
1,Portishead,0.337922,0.659631,-2.809,0.514056,0.635838,0.770225,Once
1,'S?rgio Mendes',0.747086,0.735228,-9.466,0.109911,0.577045,0.564486,Once
1,'Jo?o Gilberto',0.557937,0.030151,-27.054,0.16941,0.565727,0.631716,Repeat
1,Cartola,0.557339,0.440242,-13.967,0.418781,0.548751,0.565243,Repeat
1,'Little Joy',0.503663,0.280984,-12.927,0.416613,0.557912,0.537326,Repeat
1,'Explosions in the Sky',0.240601,0.837315,-6.975,0.410742,0.608442,0.690542,Once
1,'Alceu Valen?a',0.532189,0.175633,-15.372,0.135685,0.44005,0.403302,Once
1,'The Clash',0.571612,0.845894,-7.934,0.233714,0.660552,0.833122,Once
1,'Alceu Valen?a',0.588778,0.473577,-11.821,0.16399,0.44005,0.403302,Once
1,'Little Joy',0.753959,0.613246,-7.775,0.39997,0.557912,0.537326,Repeat
1,Steinski,0.716095,0.519842,-12.531,0.115777,0.463919,0.456889,Once
1,'La Rue K?tanou',0.386224,0.925127,-5.53,0.314903,0.503891,0.452218,Repeat
1,'Modest Mouse',0.304988,0.605053,-4.677,0.365197,0.740428,0.763091,Once
1,'Damian Marley',0.565946,0.834882,-6.054,0.428562,0.61899,0.677387,Once
1,'Little Joy',0.59001,0.775642,-6.887,0.393315,0.557912,0.537326,Repeat
1,'Jo?o Gilberto',0.586297,0.182119,-21.054,0.119497,0.565727,0.631716,Repeat
1,'Tom Waits',0.631512,0.39162,-15.067,0.247986,0.615058,0.805948,Once
1,'Jorge Drexler',0.597354,0.245393,-12.188,0.243877,0.562271,0.549936,Once
1,'John Brown\'s Body',0.554266,0.728022,-8.462,0.196502,0.538073,0.503557,Once
1,'Air France',0.590506,0.832771,-5.809,0.348652,0.526209,0.518807,Once
1,'Modest Mouse',0.51672,0.93131,-4.571,0.348707,0.740428,0.763091,Once
1,'John Brown\'s Body',0.77148,0.534591,-7.283,0.233989,0.538073,0.503557,Repeat
1,'La Rue K?tanou',0.580772,0.810722,-4.471,0.194508,0.503891,0.452218,Once
1,'Tom Waits',0.426627,0.521838,-13.141,0.380737,0.615058,0.805948,Repeat
1,'Four Tet',0.683997,0.727593,-9.561,0.440991,0.596409,0.718798,Once
1,'Alceu Valen?a',0.467274,0.608211,-7.49,0.208142,0.44005,0.403302,Once
1,'Iron & Wine',0.474145,0.730701,-6.37,0.365703,0.617223,0.705726,Once
1,'Iron & Wine',0.725248,0.58028,-7.833,0.38652,0.617223,0.705726,Once
1,'Modest Mouse',0.458849,0.83154,-6.109,0.376073,0.740428,0.763091,Once
1,Momboj?,0.615174,0.805903,-12.622,0.181634,0.557865,0.443419,Once
1,'Jo?o Gilberto',0.673696,0.347509,-13.528,0.200013,0.565727,0.631716,Once
1,'John Brown\'s Body',0.652402,0.876453,-5.632,0.11504,0.538073,0.503557,Once
1,'Carlos N??ez',0.178228,0.121401,-16.706,0.041556,0.483194,0.43615,Once
1,'Shirley Collins',0.504199,0.073827,-11.889,0.057598,0.468928,0.487906,Once
1,'Jo?o Gilberto',0.582336,0.108292,-25.179,0.271885,0.565727,0.631716,Repeat
1,'The Clash',0.452891,0.68526,-7.127,0.241898,0.660552,0.833122,Once
1,'Jo?o Gilberto',0.573516,0.057953,-29.26,0.221744,0.565727,0.631716,Repeat
1,'Les Yeux Noirs',0.403071,0.537842,-8.157,0,0.452894,0.349491,Once
1,'Iron & Wine',0.52528,0.616603,-7.878,0.336288,0.617223,0.705726,Once
1,Cyberfit,0.710746,0.738642,-10.887,0.199669,0.316639,0.235646,Once
1,'Modest Mouse',0.636124,0.896132,-5.036,0.501676,0.740428,0.763091,Once
1,'Jo?o Gilberto',0.452758,0.019904,-31.496,0.042566,0.565727,0.631716,Repeat
1,'Jo?o Gilberto',0.445506,0.014413,-34.2,0.042566,0.565727,0.631716,Repeat
1,'Cosmic Gate',0.59046,0.698821,-10.217,0.12424,0.607295,0.651691,Once
1,Luna,0.620941,0.636297,-7.692,0.183741,0.488523,0.630312,Once
1,'Jimmy Page',0.437058,0.573273,-13.01,0.156328,0.581353,0.726957,Once
1,'Chris Isaak',0.47745,0.858766,-4.697,0.232762,0.664137,0.665225,Once
1,'La Rue K?tanou',0.763861,0.651281,-3.177,0.350649,0.503891,0.452218,Once
1,'Les Yeux Noirs',0.505008,0.58315,-5.679,0,0.452894,0.349491,Once
1,'Marisa Monte',0.714438,0.46052,-14.62,0.260092,0.608905,0.591709,Once
1,'Marisa Monte',0.456683,0.320035,-19.691,0.041556,0.608905,0.591709,Once
1,'Jorge Ben Jor',0.594351,0.697958,-8.471,0.358388,0.598557,0.575064,Repeat
1,'Nina Simone',0.295403,0.219853,-13.258,0.251181,0.667782,0.772551,Once
1,'Modest Mouse',0.647623,0.512173,-4.801,0.421922,0.740428,0.763091,Once
1,M83,0.062441,0.230273,-9.525,0.266818,0.786928,0.729051,Once
1,'Little Joy',0.613399,0.462407,-9.465,0.311699,0.557912,0.537326,Once
1,'Marisa Monte',0.519842,0.507547,-9.441,0.153775,0.608905,0.591709,Once
1,Momboj?,0.468368,0.647409,-9.388,0.240522,0.557865,0.443419,Once
1,'Jorge Drexler',0.306026,0.612719,-4.131,0.207894,0.562271,0.549936,Once
1,'Jo?o Gilberto',0.657426,0.088756,-28.401,0.269092,0.565727,0.631716,Repeat
1,'La Rue K?tanou',0.57374,0.794833,-6.58,0.328634,0.503891,0.452218,Once
1,Radiohead,0.254602,0.607648,-10.895,0.32518,0.820399,0.87455,Once
1,'La Rue K?tanou',0.464374,0.866734,-5.225,0.175144,0.503891,0.452218,Once
1,'Little Joy',0.649851,0.227463,-12.532,0.378828,0.557912,0.537326,Once
1,Cartola,0.629988,0.417202,-12.369,0.184954,0.548751,0.565243,Repeat
1,Steinski,0.628376,0.56697,-11.328,0.137667,0.463919,0.456889,Once
1,'Jorge Drexler',0.718653,0.61223,-6.101,0.266371,0.562271,0.549936,Once
1,'Jo?o Gilberto',0.495729,0.17646,-24.284,0.108073,0.565727,0.631716,Repeat
1,'Vin?cius de Moraes',0.650461,0.203239,-16.137,0.041556,0.549853,0.577445,Once
1,'La Rue K?tanou',0.478886,0.507196,-6.389,0.19398,0.503891,0.452218,Once
1,Radiohead,0.428311,0.530126,-8.71,0.672429,0.820399,0.87455,Once
1,'Hilmar ?rn Hilmarsson',0.142166,0.222481,-18.377,0,0.497408,0.35347,Once
1,'Jo?o Gilberto',0.623934,0.039221,-30.187,0.201795,0.565727,0.631716,Repeat
1,Bonobo,0.682836,0.589792,-7.71,0.310306,0.743595,0.700294,Once
1,'Sylvia Telles',0.355097,0.324573,-9.149,0.0587,0.483555,0.37279,Repeat
1,'Jo?o Gilberto',0.446457,0.249571,-20.866,0.118158,0.565727,0.631716,Repeat
1,Cartola,0.690037,0.628211,-11.535,0.08386,0.548751,0.565243,Repeat
1,'Modest Mouse',0.372357,0.956871,-6.121,0.211414,0.740428,0.763091,Once
1,'Desmond Dekker',0.82809,0.458447,-13.597,0.244523,0.550465,0.557537,Once
1,Cartola,0.687236,0.265292,-17.09,0.29884,0.548751,0.565243,Repeat
1,'Jo?o Gilberto',0.60168,0.050033,-27.529,0.119497,0.565727,0.631716,Once
1,'La Rue K?tanou',0.652959,0.188526,-10.9,0.196088,0.503891,0.452218,Once
1,'Jorge Ben Jor',0.816469,0.786548,-6.642,0.085131,0.598557,0.575064,Once
1,'Arnaldo Antunes',0.452069,0.522097,-9.276,0.100118,0.461615,0.398102,Once
1,'Holy Fuck',0.512824,0.973282,-8.475,0.231339,0.562328,0.58819,Once
1,Iration,0.642399,0.740817,-6.342,0.414891,0.585776,0.548732,Once
1,'La Rue K?tanou',0.445791,0.819202,-5.477,0.239435,0.503891,0.452218,Once
1,'Marisa Monte',0.434122,0.637568,-8.394,0.246848,0.608905,0.591709,Repeat
1,'Explosions in the Sky',0.245035,0.413111,-14.936,0.451654,0.608442,0.690542,Once
1,'La Rue K?tanou',0.456806,0.821478,-6.64,0.293184,0.503891,0.452218,Repeat
1,'Alceu Valen?a',0.589611,0.538043,-11.554,0.203755,0.44005,0.403302,Once
1,'Le Peuple de l\'Herbe',0.713338,0.457484,-10.517,0.233285,0.544281,0.46876,Once
1,'Jo?o Gilberto',0.456502,0.018288,-30.591,0.206931,0.565727,0.631716,Repeat
1,'La Rue K?tanou',0.574505,0.591956,-7.051,0.264748,0.503891,0.452218,Once
1,'Air France',0.564851,0.735929,-5.373,0.412721,0.526209,0.518807,Once
1,'Massive Attack',0.544803,0.333782,-10.4,0.252082,0.730231,0.792256,Once
1,Cartola,0.647513,0.502166,-14.015,0.032398,0.548751,0.565243,Repeat
1,'Jo?o Gilberto',0.486622,0.015677,-30.827,0.206666,0.565727,0.631716,Repeat
1,'La Rue K?tanou',0.468916,0.893576,-4.629,0.232751,0.503891,0.452218,Once
1,'Santa Sabina',0.29752,0.5503,-8.742,0.126219,0.503418,0.390673,Once
1,'Ziggy Marley',0.620232,0.280778,-10.434,0.2227,0.609291,0.67692,Once
1,'Jo?o Gilberto',0.699269,0.052375,-31.121,0.26777,0.565727,0.631716,Repeat
1,'Ziggy Marley',0.837091,0.81296,-7.383,0.116662,0.609291,0.67692,Once
1,'Modest Mouse',0.386531,0.874616,-5.063,0.195453,0.740428,0.763091,Once
1,Cartola,0.746742,0.44196,-13.717,0.201715,0.548751,0.565243,Repeat
1,Momboj?,0.598159,0.844854,-7.022,0.168825,0.557865,0.443419,Once
1,'La Rue K?tanou',0.614588,0.445809,-8.541,0.290984,0.503891,0.452218,Once
1,'Damian Marley',0.697828,0.85741,-5.788,0.368017,0.61899,0.677387,Once
1,'Little Joy',0.415839,0.629764,-7.8,0.381685,0.557912,0.537326,Once
1,Pixies,0.554979,0.552286,-6.411,0.570109,0.770938,0.819299,Once
1,'Iron & Wine',0.617264,0.738375,-5.713,0.324453,0.617223,0.705726,Once
1,'Modest Mouse',0.407262,0.613741,-8.907,0.197594,0.740428,0.763091,Once
1,'Alceu Valen?a',0.792654,0.540234,-13.115,0.118196,0.44005,0.403302,Once
1,Momboj?,0.312242,0.908138,-5.748,0.206322,0.557865,0.443419,Once
1,'Jo?o Gilberto',0.592214,0.03662,-25.143,0.167764,0.565727,0.631716,Repeat
1,Radiohead,0.336864,0.826797,-6.755,0.324058,0.820399,0.87455,Once
1,'Marisa Monte',0.460897,0.164319,-20.818,0.153775,0.608905,0.591709,Once
1,'Jo?o Gilberto',0.676264,0.012041,-29.055,0.132063,0.565727,0.631716,Repeat
1,'The American Analog Set',0.468896,0.323709,-12.52,0.176527,0.530339,0.541624,Once
1,'Jo?o Gilberto',0.495893,0.137716,-19.404,0.323866,0.565727,0.631716,Repeat
1,'Boys Noize',0.707075,0.797099,-8.655,0.152013,0.600689,0.689557,Once
1,'Marisa Monte',0.658496,0.707855,-9.173,0.228219,0.608905,0.591709,Repeat
1,'Jo?o Gilberto',0.487013,0.019645,-32.27,0.183696,0.565727,0.631716,Repeat
1,'Marisa Monte',0.562531,0.336717,-10.241,0.23746,0.608905,0.591709,Once
1,'Jorge Ben Jor',0.498389,0.749225,-10.522,0.280139,0.598557,0.575064,Once
1,'Spread Eagle',0.413534,0.919128,-8.346,0.103042,0.430206,0.360895,Once
1,'Jorge Drexler',0.566907,0.608144,-5.571,0.177931,0.562271,0.549936,Once
1,Gong,0.723874,0.599377,-6.169,0.112429,0.517552,0.57193,Once
1,'Flying Lotus',0.702224,0.935946,-3.861,0.318559,0.614187,0.698512,Once
1,'Ulrich Schnauss',0.421364,0.582546,-11.023,0.391761,0.575883,0.612403,Once
1,'Damian Marley',0.881947,0.736673,-7.735,0.316649,0.61899,0.677387,Once
1,'Little Joy',0.472737,0.25176,-11.39,0.389965,0.557912,0.537326,Repeat
1,'The Grascals',0.352482,0.650183,-6.201,0.030534,0.498424,0.478059,Once
1,'Jo?o Gilberto',0.506123,0.018356,-33.329,0.162063,0.565727,0.631716,Repeat
1,'Rob Zombie',0.531016,0.982964,-1.484,0.292432,0.618463,0.746943,Repeat
1,'Les Yeux Noirs',0.257342,0.515033,-9.345,0,0.452894,0.349491,Once
1,'Modest Mouse',0.630866,0.699836,-5.757,0.450867,0.740428,0.763091,Once
1,'La Rue K?tanou',0.69681,0.416519,-8.005,0.325123,0.503891,0.452218,Once
1,'Caetano Veloso',0.360134,0.197499,-16.242,0.187285,0.625502,0.685127,Once
1,'La Rue K?tanou',0.51846,0.735654,-5.991,0.116662,0.503891,0.452218,Once
1,Yellowcard,0.410346,0.964792,-4.692,0.403023,0.629777,0.697357,Once
1,'Jimmy Eat World',0.50744,0.882649,-5.568,0.316486,0.615368,0.756077,Once
1,Hinder,0.350009,0.651503,-4.593,0.305738,0.598014,0.545954,Once
1,Yellowcard,0.353269,0.808364,-4.657,0.254264,0.629777,0.697357,Once
1,Nightwish,0.357848,0.864125,-7.133,0.393048,0.623108,0.757062,Once
1,Hinder,0.450065,0.862546,-4.676,0.360511,0.598014,0.545954,Once
1,Atreyu,0.490337,0.895808,-3.893,0.266988,0.59941,0.679229,Once
1,'Boys Like Girls',0.417047,0.957532,-3.875,0.308721,0.620771,0.651682,Once
1,'Black Tide',0.502839,0.988753,-2.741,0.297922,0.568551,0.518466,Once
1,Yellowcard,0.437474,0.833127,-3.635,0.315309,0.629777,0.697357,Once
1,Yellowcard,0.348567,0.937518,-4.702,0.40993,0.629777,0.697357,Once
1,Hinder,0.485146,0.921305,-3.142,0.110031,0.598014,0.545954,Once
1,'James Yorkston',0.405936,0.58792,-11.889,0,0.541354,0.517478,Once
1,'Banda Eva',0.447961,0.879282,-7.479,0.065865,0.569327,0.437707,Once
1,'Bright Eyes',0.41953,0.520566,-9.39,0.386331,0.605167,0.734432,Once
1,'Cute Is What We Aim For',0.490053,0.946659,-4.773,0.328876,0.581692,0.597153,Once
1,Sia,0.519039,0.319352,-10.552,0.164208,0.939456,0.762126,Once
1,'Avenged Sevenfold',0.27152,0.883336,-5.639,0.315101,0.78362,0.802857,Once
1,Yellowcard,0.482382,0.89582,-5.569,0.546161,0.629777,0.697357,Once
1,Yellowcard,0.477706,0.566602,-6.663,0.371012,0.629777,0.697357,Once
1,'Boys Like Girls',0.424274,0.901977,-4.572,0.4603,0.620771,0.651682,Once
1,Alphaville,0.386233,0.181923,-15.012,0.065865,0.671098,0.634334,Once
1,'Dashboard Confessional',0.460302,0.762379,-3.519,0.203143,0.599409,0.673764,Once
1,'Beastie Boys',0.762268,0.458357,-13.395,0.166224,0.668952,0.805404,Repeat
1,'Black Tide',0.395648,0.981684,-3.804,0.165968,0.568551,0.518466,Once
1,Yellowcard,0.460826,0.96593,-3.444,0.302225,0.629777,0.697357,Once
1,'Aneta Langerov?',0.62331,0.77811,-4.959,0.20713,0.496819,0.377193,Once
1,Yellowcard,0.358211,0.666747,-6.233,0.413324,0.629777,0.697357,Once
1,Nightwish,0.472168,0.662056,-4.998,0.522568,0.623108,0.757062,Once
1,'Dashboard Confessional',0.574152,0.762639,-4.784,0.261641,0.599409,0.673764,Once
1,'The Fratellis',0.388169,0.890379,-5.559,0.161211,0.724962,0.631255,Once
1,Yellowcard,0.396283,0.96648,-4.506,0.219749,0.629777,0.697357,Once
1,'Mayday Parade',0.444363,0.791382,-3.852,0.36298,0.629003,0.663647,Once
1,Verjnuarmu,0.4348,0.90094,-4.477,0,0.487922,0.363647,Repeat
1,Yellowcard,0.435631,0.834323,-4.341,0.360317,0.629777,0.697357,Once
1,'Black Tide',0.444173,0.98744,-3.276,0.214513,0.568551,0.518466,Once
1,Atreyu,0.439119,0.986873,-2.863,0.348882,0.59941,0.679229,Once
1,'Black Tide',0.333611,0.983986,-4.21,0.185914,0.568551,0.518466,Once
1,'October Fall',0.530985,0.915659,-3.403,0.202955,0.45449,0.393218,Repeat
1,Atreyu,0.278366,0.951572,-3.48,0.297048,0.59941,0.679229,Once
1,'Cobra Skulls',0.483588,0.947091,-4.945,0.083112,0.508402,0.402765,Once
1,Anberlin,0.402677,0.973533,-4.827,0.450681,0.725754,0.70566,Once
1,Yellowcard,0.435001,0.969037,-3.748,0.448542,0.629777,0.697357,Once
1,'Jag Panzer',0.601343,0.910193,-5.137,0.237213,0.494953,0.447907,Repeat
1,'Pressure 4-5',0.534465,0.762311,-5.479,0.148606,0.436507,0.35415,Once
1,'Cute Is What We Aim For',0.365704,0.940369,-4.764,0.332216,0.581692,0.597153,Once
1,'Theory of a Deadman',0.510377,0.786567,-5.297,0.213568,0.773273,0.640826,Once
1,'Empty Trash',0.448925,0.921394,-3.375,0.061753,0.442178,0.359828,Once
1,'Boys Like Girls',0.481453,0.954867,-2.974,0.379398,0.620771,0.651682,Once
1,Yellowcard,0.364436,0.990298,-3.951,0.281653,0.629777,0.697357,Once
1,Yellowcard,0.484936,0.768656,-4.365,0.371645,0.629777,0.697357,Once
1,Yellowcard,0.376543,0.990802,-3.57,0.331599,0.629777,0.697357,Once
1,Yellowcard,0.359779,0.9822,-4.09,0.367897,0.629777,0.697357,Once
1,'Bill Engvall',0.546403,0.968961,-8.191,0.017671,0.574154,0.469983,Repeat
1,'Black Tide',0.356021,0.993949,-2.601,0.415615,0.568551,0.518466,Once
1,Yellowcard,0.399257,0.957652,-4.548,0.280164,0.629777,0.697357,Once
1,'Black Tide',0.386265,0.96343,-4.215,0.248664,0.568551,0.518466,Once
1,'Avenged Sevenfold',0.312795,0.950527,-3.915,0.283126,0.78362,0.802857,Once
1,'Adrian Sherwood',0.543395,0.918542,-6.206,0.116694,0.486296,0.524543,Once
1,Silverchair,0.355543,0.465026,-8.735,0.507545,0.594317,0.678245,Once
1,'Florence + The Machine',0.605655,0.647152,-9.569,0.300747,0.765103,0.685401,Once
1,'Sonata Arctica',0.282845,0.916394,-4.94,0.286905,0.628713,0.668061,Once
1,'The Boxmasters',0.497768,0.72454,-8.372,0,0.375341,0.352849,Repeat
1,'Yann Tiersen',0.533927,0.400766,-13.708,0.39029,0.657599,0.702914,Repeat
1,'Comeback Kid',0.446847,0.954174,-4.042,0.455508,0.573674,0.626232,Once
1,'The New Pornographers',0.640743,0.834738,-4.456,0.236979,0.824179,0.685182,Repeat
1,'Florence + The Machine',0.593683,0.526259,-5.332,0.377368,0.765103,0.685401,Once
1,'Boris Brejcha',0.797599,0.683149,-13.013,0.051965,0.57927,0.536958,Repeat
1,Gorillaz,0.664815,0.486195,-10.343,0.336276,0.792395,0.769052,Once
1,'The B-52\'s',0.705872,0.754953,-8.312,0.156592,0.594457,0.664301,Once
1,'Hayseed Dixie',0.524851,0.49188,-7.414,0.244101,0.511482,0.428831,Repeat
1,'Legi?o Urbana',0.760411,0.38768,-13.916,0.278071,0.583163,0.55144,Repeat
1,Creed,0.417738,0.93114,-4.709,0.429453,0.607665,0.708049,Once
1,'Legi?o Urbana',0.224272,0.797872,-10.579,0.253099,0.583163,0.55144,Repeat
1,'The Killers',0.544613,0.966376,-3.853,0.441414,0.813577,0.778862,Once
1,'Florence + The Machine',0.451273,0.504841,-6.816,0.424684,0.765103,0.685401,Once
1,'Legi?o Urbana',0.600401,0.261414,-16.14,0.518356,0.583163,0.55144,Repeat
1,'Nando Reis',0.483659,0.806643,-6.802,0.4038,0.605605,0.374777,Loved
1,'Bobby \"Blue\" Bland',0.778344,0.316119,-17.287,0.267813,0.546666,0.573144,Repeat
1,Gorillaz,0.70896,0.319116,-11.327,0.315585,0.792395,0.769052,Repeat
1,'La Sonrisa de Julia',0.626211,0.752128,-4.186,0.18436,0.512688,0.327554,Once
1,'Linkin Park',0.589323,0.970376,-4.526,0.344097,0.860044,0.834811,Once
1,'Nando Reis',0.33935,0.883902,-4.854,0.366008,0.605605,0.374777,Loved
1,'Nando Reis',0.228528,0.913545,-5.996,0.245917,0.605605,0.374777,Repeat
1,'Nando Reis',0.588377,0.831275,-7.314,0.275746,0.605605,0.374777,Repeat
1,Gorillaz,0.511184,0.582509,-7.396,0.297728,0.792395,0.769052,Once
1,'Florence + The Machine',0.659442,0.460725,-4.602,0.291156,0.765103,0.685401,Once
1,'Brad Paisley',0.473835,0.55302,-9.243,0.365595,0.849943,0.751202,Once
1,'Nando Reis',0.300976,0.783445,-4.97,0.065865,0.605605,0.374777,Repeat
1,'Lily Allen',0.707847,0.601402,-6.915,0,0.805032,0.765911,Repeat
1,'Florence + The Machine',0.654531,0.691854,-6.191,0.19298,0.765103,0.685401,Repeat
1,'Spook & The Guay',0.607811,0.844486,-5.468,0,0.416779,0.3531,Repeat
1,'Nando Reis',0.574438,0.487922,-9.081,0.404584,0.605605,0.374777,Repeat
1,'Amy Winehouse',0.479917,0.743139,-4.96,0.370317,0.7177,0.758757,Once
1,Creed,0.381227,0.69907,-5.758,0.58443,0.607665,0.708049,Repeat
1,Audioslave,0.458475,0.749189,-4.219,0.532853,0.635818,0.713819,Once
1,Creed,0.329249,0.936012,-4.511,0.266127,0.607665,0.708049,Repeat
1,Lindisfarne,0.568175,0.708059,-8.6,0,0.512886,0.50271,Once
1,Creed,0.374431,0.882917,-5.356,0.236584,0.607665,0.708049,Once
1,Radiohead,0.428311,0.530126,-8.71,0.672429,0.820399,0.87455,Once
1,Hoobastank,0.556321,0.796643,-4.617,0.217558,0.614442,0.64269,Once
1,Creed,0.448255,0.969596,-3.948,0.242892,0.607665,0.708049,Once
1,Creed,0.333618,0.584217,-4.735,0.429828,0.607665,0.708049,Once
1,Hoobastank,0.408444,0.723441,-5.872,0.238042,0.614442,0.64269,Once
1,'FM Static',0.567389,0.917821,-6.126,0.221478,0.57142,0.511917,Once
1,'Ryan Adams',0.323062,0.312131,-9.619,0.235078,0.765167,0.753673,Once
1,'Nando Reis',0.455593,0.509372,-9.488,0.3119,0.605605,0.374777,Once
1,Everclear,0.426011,0.475174,-10.028,0.109199,0.590001,0.646988,Once
1,EPMD,0.618103,0.786106,-7.009,0.085131,0.576291,0.641209,Once
1,'Jessi Colter',0.559632,0.368105,-11.077,0.225689,0.523316,0.4954,Once
0.977273,'A Hawk and a Hacksaw',0.378848,0.538746,-11.954,0.145668,0.535308,0.458615,Once
0.977273,'The Strokes',0.622324,0.895691,-5.997,0.648977,0.747888,0.780012,Once
0.977273,'Yo La Tengo',0.547555,0.662737,-10.005,0.357082,0.597611,0.708348,Once
0.977273,'Future of the Left',0.728011,0.728101,-3.317,0.130957,0.494695,0.486804,Once
0.977273,'Adam Lambert',0.691428,0.842317,-4.089,0.416989,0.616686,0.669728,Repeat
0.977273,'Franz Ferdinand',0.545314,0.864721,-9.492,0.499015,0.782825,0.759866,Once
0.977273,'Adam Lambert',0.375957,0.870707,-3.542,0.40653,0.616686,0.669728,Once
0.977273,'Florence + The Machine',0.622441,0.734116,-6.176,0.411378,0.765103,0.685401,Once
0.977273,Ke$ha,0.473488,0.803161,-3.704,0.312199,0.769932,0.743087,Once
0.977273,Nirvana,0.413472,0.961521,-5.723,0.21964,0.824607,0.889048,Once
0.977273,'A Hawk and a Hacksaw',0.414425,0.429867,-13.882,0.041556,0.535308,0.458615,Once
0.977273,'Jack Johnson',0.876023,0.197229,-14.413,0.303081,0.75659,0.736065,Once
0.977273,'The Strokes',0.424195,0.929195,-6.366,0.428387,0.747888,0.780012,Once
0.977273,'Scarlett Johansson',0.453512,0.619305,-8.514,0.349482,0.554935,0.579365,Once
0.977273,'Jack Johnson',0.883592,0.328705,-14.666,0.364096,0.75659,0.736065,Once
0.977273,'Jack Johnson',0.672518,0.367203,-10.588,0.278629,0.75659,0.736065,Once
0.977273,'Yo La Tengo',0.573912,0.818531,-6.147,0.341934,0.597611,0.708348,Once
0.977273,78violet,0.576181,0.888106,-4.15,0.204129,0.553297,0.461391,Once
0.977273,'Alice in Chains',0.468036,0.625786,-5.903,0.505897,0.627444,0.794465,Once
0.977273,'The Strokes',0.509722,0.857764,-6.095,0.467183,0.747888,0.780012,Once
0.977273,'LCD Soundsystem',0.826972,0.895825,-5.564,0.381693,0.609723,0.744088,Once
0.977273,'The Strokes',0.499674,0.690734,-9.447,0.482527,0.747888,0.780012,Once
0.977273,'Future of the Left',0.505626,0.872883,-4.76,0.160395,0.494695,0.486804,Once
0.977273,Gorillaz,0.608822,0.695588,-10.58,0.21201,0.792395,0.769052,Once
0.977273,Ke$ha,0.86105,0.88644,-3.891,0.361184,0.769932,0.743087,Once
0.977273,'Jack Johnson',0.557132,0.111851,-17.459,0.319479,0.75659,0.736065,Once
0.977273,'The Strokes',0.530408,0.890769,-6.04,0.52935,0.747888,0.780012,Once
0.977273,'Franz Ferdinand',0.533997,0.59425,-7.421,0.462965,0.782825,0.759866,Once
0.977273,'A Hawk and a Hacksaw',0.314478,0.679854,-4.366,0.162942,0.535308,0.458615,Once
0.977273,'Element Eighty',0.444843,0.946408,-3,0.35513,0.537309,0.435873,Once
0.977273,'KT Tunstall',0.41709,0.449513,-9.57,0.40584,0.593015,0.660614,Repeat
0.977273,Metallica,0.326723,0.972189,-4.765,0.354511,0.820659,0.864243,Once
0.977273,'Yo La Tengo',0.514919,0.573743,-10.965,0.324938,0.597611,0.708348,Once
0.977273,'Daft Punk',0.720893,0.759987,-9.135,0.297302,0.874167,0.857573,Once
0.977273,'Jack Johnson',0.784685,0.385819,-9.28,0.510438,0.75659,0.736065,Once
0.977273,'Yo La Tengo',0.561668,0.230311,-14.715,0.436179,0.597611,0.708348,Once
0.977273,'The Strokes',0.499168,0.706479,-7.343,0.486948,0.747888,0.780012,Once
0.977273,'The White Stripes',0.67705,0.359591,-13.229,0.324035,0.785677,0.799087,Once
0.977273,'Jack Johnson',0.704225,0.338386,-14.28,0.358306,0.75659,0.736065,Once
0.977273,Gorillaz,0.336056,0.494203,-7.059,0.470988,0.792395,0.769052,Once
0.977273,'Jack Johnson',0.674882,0.315824,-15.59,0.319802,0.75659,0.736065,Once
0.977273,'FC Kahuna',0.520557,0.867864,-5.083,0.294166,0.531147,0.464552,Once
0.977273,'LCD Soundsystem',0.694345,0.963985,-6.656,0.431144,0.609723,0.744088,Once
0.977273,'The Black Keys',0.710119,0.473009,-8.648,0.423831,0.84268,0.800241,Once
0.977273,'Alice in Chains',0.442018,0.949568,-3.64,0.338084,0.627444,0.794465,Once
0.977273,'KT Tunstall',0.618839,0.165165,-12.06,0.334143,0.593015,0.660614,Once
0.977273,'Jantje Smit',0.661542,0.467807,-5.602,0.076192,0.425054,0.308879,Once
0.977273,'Adam Lambert',0.434644,0.84452,-4.285,0.420137,0.616686,0.669728,Once
0.977273,'Jack Johnson',0.886042,0.632558,-8.835,0.345844,0.75659,0.736065,Once
0.977273,Metallica,0.334304,0.982675,-2.542,0.505199,0.820659,0.864243,Once
0.977273,Gorillaz,0.766861,0.722793,-4.46,0.239143,0.792395,0.769052,Once
0.977273,'LCD Soundsystem',0.795437,0.465378,-11.075,0.131729,0.609723,0.744088,Once
0.977273,Gorillaz,0.849995,0.624846,-6.83,0.197071,0.792395,0.769052,Once
0.977273,'Jack Johnson',0.823192,0.623935,-6.775,0.384758,0.75659,0.736065,Once
0.977273,'Buju Banton',0.720114,0.442901,-14.193,0.148046,0.583659,0.641316,Once
0.977273,'We Were Promised Jetpacks',0.358426,0.805431,-6.131,0.381769,0.652433,0.551542,Once
0.977273,'Jack Johnson',0.737049,0.682914,-7.519,0.187981,0.75659,0.736065,Once
0.977273,'Sylk 130',0.665501,0.403058,-15.085,0,0.419457,0.309811,Once
0.977273,'Jack Johnson',0.711605,0.320116,-14.544,0.406671,0.75659,0.736065,Once
0.977273,'Jack Johnson',0.926697,0.385821,-7.495,0.437704,0.75659,0.736065,Once
0.977273,'Jack Johnson',0.598182,0.292797,-11.487,0.498661,0.75659,0.736065,Once
0.977273,'Jack Johnson',0.681303,0.676779,-6.253,0.312825,0.75659,0.736065,Once
0.977273,'Jack Johnson',0.598472,0.154183,-18,0.404799,0.75659,0.736065,Once
0.977273,Gorillaz,0.606352,0.827351,-7.678,0.322007,0.792395,0.769052,Once
0.977273,'Daft Punk',0.484312,0.181303,-29.482,0.412289,0.874167,0.857573,Once
0.977273,'Yo La Tengo',0.627472,0.958084,-7.847,0.139567,0.597611,0.708348,Once
0.977273,'Jack Johnson',0.667737,0.309879,-12.345,0.313695,0.75659,0.736065,Once
0.977273,'Future of the Left',0.726743,0.449403,-6.376,0.311332,0.494695,0.486804,Repeat
0.977273,'Daft Punk',0.659582,0.868262,-9.418,0.422334,0.874167,0.857573,Once
0.977273,'Alice in Chains',0.385918,0.848947,-5.191,0.303837,0.627444,0.794465,Once
0.977273,'Michael Franti',0.769437,0.552742,-5.579,0.058575,0.639552,0.609247,Once
0.977273,'Yo La Tengo',0.452794,0.403673,-9.185,0.213795,0.597611,0.708348,Once
0.977273,'Jack Johnson',0.820399,0.792972,-6.122,0.372774,0.75659,0.736065,Once
0.977273,'The Black Keys',0.612849,0.359837,-11.561,0.323244,0.84268,0.800241,Repeat
0.977273,'Florence + The Machine',0.593683,0.526259,-5.332,0.377368,0.765103,0.685401,Once
0.977273,'Adam Lambert',0.705705,0.847724,-6.742,0.418171,0.616686,0.669728,Once
0.977273,Ministry,0.436906,0.956222,-7.28,0.199283,0.584676,0.702886,Once
0.977273,'Yo La Tengo',0.244076,0.573484,-7.514,0.407714,0.597611,0.708348,Once
0.977273,'LCD Soundsystem',0.720827,0.911251,-6.106,0.391296,0.609723,0.744088,Once
0.977273,'Yo La Tengo',0.342738,0.852571,-6.169,0.223381,0.597611,0.708348,Once
0.977273,Ke$ha,0.71772,0.712825,-5.885,0.263295,0.769932,0.743087,Once
0.977273,Ke$ha,0.599728,0.939571,-1.815,0.330683,0.769932,0.743087,Once
0.977273,'Ziggy Marley',0.620232,0.280778,-10.434,0.2227,0.609291,0.67692,Once
0.977273,'Parts & Labor',0.168935,0.873434,-6.446,0.19778,0.473328,0.410315,Once
0.977273,'Scarlett Johansson',0.176664,0.534218,-9.22,0.325066,0.554935,0.579365,Once
0.977273,'+/- {Plus/Minus}',0.599393,0.551192,-9.433,0,0,0.089537,Once
0.977273,'The White Stripes',0.504953,0.180399,-13.414,0.260689,0.785677,0.799087,Once
0.977273,Gorillaz,0.649403,0.536098,-10.776,0.353755,0.792395,0.769052,Once
0.977273,'Yo La Tengo',0.247632,0.638678,-7.354,0.278591,0.597611,0.708348,Once
0.977273,'Jack Johnson',0.902385,0.505312,-9.316,0.358015,0.75659,0.736065,Once
0.977273,'KT Tunstall',0.616907,0.640183,-6.249,0.290172,0.593015,0.660614,Repeat
0.977273,'Florence + The Machine',0.549352,0.429759,-6.364,0.383149,0.765103,0.685401,Once
0.977273,'Yo La Tengo',0.547895,0.228102,-14.399,0.315942,0.597611,0.708348,Once
0.977273,Ke$ha,0.396511,0.7695,-4.093,0.361555,0.769932,0.743087,Once
0.977273,'Jack Johnson',0.650298,0.594448,-8.144,0.377138,0.75659,0.736065,Once
0.977273,'Adam Lambert',0.537658,0.840083,-6.152,0.250849,0.616686,0.669728,Once
0.977273,'Yo La Tengo',0.199534,0.911804,-5.024,0.1479,0.597611,0.708348,Once
0.977273,Fuel,0.42041,0.9348,-4.913,0.345256,0.59457,0.615076,Once
0.977273,'Alice in Chains',0.182658,0.333152,-9.272,0.328217,0.627444,0.794465,Once
0.977273,'Alice in Chains',0.59241,0.468366,-9.042,0.30297,0.627444,0.794465,Once
0.977273,Lucybell,0.645481,0.882845,-7.34,0.054908,0.56965,0.471188,Repeat
0.977273,'Jack Johnson',0.716574,0.360314,-8.235,0.158218,0.75659,0.736065,Once
0.977273,'The Black Keys',0.447666,0.521624,-8.517,0.365933,0.84268,0.800241,Once
0.977273,'A Hawk and a Hacksaw',0.381885,0.878396,-7.631,0.27448,0.535308,0.458615,Once
0.977273,'Jack Johnson',0.603772,0.523383,-11.374,0.448937,0.75659,0.736065,Once
0.977273,'Scarlett Johansson',0.412708,0.682342,-7.679,0.473307,0.554935,0.579365,Once
0.977273,'Alice in Chains',0.38501,0.828275,-5.686,0.289556,0.627444,0.794465,Once
0.977273,'Jack Johnson',0.618674,0.349565,-11.393,0.368762,0.75659,0.736065,Once
0.977273,'The Black Keys',0.307748,0.70871,-8.582,0.409399,0.84268,0.800241,Once
0.977273,'LCD Soundsystem',0.884932,0.839523,-4.576,0.466121,0.609723,0.744088,Once
0.977273,'Parts & Labor',0.263268,0.830561,-5.697,0.150575,0.473328,0.410315,Once
0.977273,'Florence + The Machine',0.654531,0.691854,-6.191,0.19298,0.765103,0.685401,Once
0.977273,Gorillaz,0.495298,0.670936,-7.579,0.324556,0.792395,0.769052,Once
0.977273,'Jack Johnson',0.717587,0.250617,-13.496,0.307621,0.75659,0.736065,Once
0.977273,'Alice in Chains',0.422402,0.832528,-4.827,0.263824,0.627444,0.794465,Once
0.977273,'Parts & Labor',0.300278,0.960017,-4.574,0.179091,0.473328,0.410315,Once
0.977273,'Future of the Left',0.338077,0.783661,-4.74,0.23967,0.494695,0.486804,Once
0.977273,'Yo La Tengo',0.411728,0.326832,-11.311,0.181903,0.597611,0.708348,Once
0.977273,'Alanis Morissette',0.46096,0.547038,-9.191,0.225201,0.617201,0.756306,Once
0.977273,'Jack Johnson',0.800445,0.924616,-5.435,0.329519,0.75659,0.736065,Once
0.977273,Gorillaz,0.836647,0.792579,-6.716,0.301005,0.792395,0.769052,Once
0.977273,'Scott Weiland',0.299924,0.800935,-5.145,0.163344,0.548458,0.608994,Once
0.977273,'Franz Ferdinand',0.308209,0.69427,-8.577,0.472248,0.782825,0.759866,Once
0.977273,Gorillaz,0.753079,0.593263,-4.624,0.5134,0.792395,0.769052,Once
0.977273,'A Hawk and a Hacksaw',0.23735,0.613732,-9.965,0.083112,0.535308,0.458615,Once
1,'Secret Garden',0.186935,0.225303,-16.915,0.358794,0.70402,0.618167,Repeat
1,'Vilma Palma e Vampiros',0.682432,0.919,-4.827,0.434844,0.572856,0.419353,Once
1,'David Newman',0.314801,0.256896,-21.394,0.116662,0.530897,0.480569,Repeat
1,'Legi?o Urbana',0.596748,0.65173,-14.275,0.469949,0.583163,0.55144,Repeat
1,'Grand National',0.836674,0.554226,-8.597,0.201489,0.519654,0.474329,Once
1,'Klaus Badelt',0.185373,0.611701,-8.087,0.356316,0.578819,0.559959,Once
1,Supertramp,0.495851,0.578356,-11.986,0.201878,0.632452,0.692108,Loved
1,Enya,0.48522,0.073203,-28.257,0.320287,0.634264,0.722822,Once
1,'Karla DeVito',0.641996,0.765679,-11.863,0.254902,0.471244,0.333831,Repeat
1,'Joan Manuel Serrat',0.471641,0.169509,-14.958,0.128113,0.616078,0.511816,Once
1,NOFX,0.537304,0.991015,-4.19,0.268428,0.605984,0.739788,Repeat
1,'Robben Ford',0.644438,0.570578,-7.891,0.328086,0.521301,0.530993,Once
1,'Backstreet Boys',0.628488,0.526358,-8.497,0.550976,0.666971,0.738662,Once
1,Fisher,0.732375,0.049749,-13.086,0.107421,0.476755,0.488692,Once
1,'Crosby, Stills & Nash',0.431164,0.184503,-16.392,0.315038,0.562483,0.617771,Repeat
1,'David Newman',0.136434,0.121027,-22.905,0.214487,0.530897,0.480569,Repeat
1,'Diana Ross',0.432339,0.170982,-16.461,0,0.608886,0.733514,Repeat
1,'Gus Viseur',0.502583,0.098728,-18.567,0,0.467138,0.351628,Once
1,'S?bastien Schuller',0.270779,0.328934,-9.189,0.177605,0.502927,0.401496,Once
1,'Backstreet Boys',0.73457,0.617489,-5.604,0.275336,0.666971,0.738662,Once
1,'L\'Arc~en~Ciel',0.433295,0.936549,-4.025,0.384717,0.723719,0.609196,Once
1,Radiohead,0.388246,0.273494,-11.039,0.506192,0.820399,0.87455,Once
1,'Backstreet Boys',0.721557,0.75428,-4.495,0.289271,0.666971,0.738662,Once
1,Enya,0.507953,0.140443,-23.525,0.368916,0.634264,0.722822,Once
1,'The Cure',0.759342,0.413523,-9.793,0.319757,0.744114,0.819183,Once
1,'The Ghastly Ones',0.399848,0.891527,-4.638,0.143097,0.468842,0.37614,Repeat
1,'Paulinho da Viola',0.764053,0.276281,-13.021,0.254243,0.518252,0.507767,Repeat
1,Enya,0.691075,0.539915,-8.533,0.2778,0.634264,0.722822,Once
1,'Rod Modell',0.415789,0.457389,-11.545,0.204527,0.415607,0.39721,Once
1,Enya,0.383206,0.285107,-17.251,0.29667,0.634264,0.722822,Once
1,'Andru Donalds',0.633301,0.888022,-5.54,0.134549,0.525192,0.414442,Once
1,'Larry Norman',0.700277,0.32176,-11.94,0.2356,0.476181,0.508717,Once
1,'Alan Silvestri',0.283215,0.34614,-17.707,0.124668,0.558875,0.537161,Once
1,Enya,0.628553,0.300746,-13.337,0.195464,0.634264,0.722822,Once
1,NOFX,0.36561,0.916119,-4.4,0.334818,0.605984,0.739788,Repeat
1,'Edwyn Collins',0.729572,0.582189,-9.911,0.152445,0.527692,0.559756,Once
1,Bj?rk,0.54969,0.979174,-2.644,0.176527,0.619191,0.813507,Repeat
1,Enya,0.354284,0.210358,-20.051,0.279406,0.634264,0.722822,Repeat
1,'Scissor Sisters',0.614565,0.91212,-4.246,0.355246,0.596568,0.679365,Repeat
1,Radiohead,0.437427,0.655906,-11.369,0.483328,0.820399,0.87455,Once
1,'The Delgados',0.196434,0.528662,-5.559,0.385485,0.525985,0.540501,Repeat
1,Calexico,0.41052,0.371751,-13.836,0.195331,0.615143,0.654108,Repeat
1,eX-Girl,0.535795,0.897057,-5.33,0.120805,0.436752,0.392782,Once
1,Seal,0.624917,0.838968,-4.755,0.474392,0.700046,0.667101,Loved
1,'Barry Tuckwell/Academy of St Martin-in-the-Fields/Sir Neville Marriner',0.177738,0.026435,-23.176,0,0.420625,0.138184,Once
1,'Gasolin\'',0.275629,0.889824,-4.904,0.076778,0.55455,0.442015,Once
1,'And So I Watch You From Afar',0.25389,0.664788,-7.471,0.298717,0.576929,0.528222,Repeat
1,'The Solsonics',0.667788,0.662842,-10.909,0,0.343462,0.271992,Repeat
1,'Secret Garden',0.412598,0.038446,-25.136,0.210605,0.70402,0.618167,Once
1,'Klaus Badelt',0.196004,0.087436,-23.103,0.417939,0.578819,0.559959,Once
1,'Sheena Easton',0.910883,0.746122,-11.293,0.403953,0.558613,0.54921,Repeat
1,Enya,0.330457,0.24275,-15.563,0.463053,0.634264,0.722822,Once
1,'Bar?n Rojo',0.183328,0.907324,-5.704,0.355609,0.518644,0.412197,Repeat
1,'The Supremes',0.415368,0.931581,-0.879,0.188444,0.609252,0.701304,Repeat
1,'Johnny Thunders',0.291366,0.284389,-20.346,0.21581,0.554767,0.619763,Once
1,'Mariah Carey',0.801008,0.674387,-6.84,0.353053,0.809542,0.836918,Repeat
1,'The Grapes of Wrath',0.427622,0.688056,-15.459,0,0.461153,0.451791,Repeat
1,'Backstreet Boys',0.648072,0.532628,-6.632,0.203424,0.666971,0.738662,Repeat
1,'Backstreet Boys',0.552606,0.475031,-8.226,0.237555,0.666971,0.738662,Once
1,Vanessa-Mae,0.486404,0.823989,-12.202,0.413389,0.571057,0.511429,Once
1,Vader,0.18125,0.988865,-5.689,0.184812,0.585739,0.63726,Repeat
1,Venom,0.40477,0.972936,-4.904,0.221744,0.563515,0.652972,Repeat
1,Annihilator,0.490424,0.782806,-8.177,0.299174,0.590936,0.626803,Once
1,'Abysmal Dawn',0.183072,0.863991,-6.198,0.065865,0.504195,0.501179,Once
1,Thrice,0.311801,0.988745,-2.915,0.275499,0.581116,0.694606,Once
1,'The Mars Volta',0.172687,0.984864,-3.72,0.263465,0.593463,0.750583,Once
1,'Porcupine Tree',0.229052,0.763221,-8.48,0.198741,0.605619,0.720307,Once
1,Carcass,0.245416,0.919022,-7.634,0.445126,0.597238,0.664786,Once
1,Epica,0.452481,0.883863,-6.199,0.216543,0.607545,0.681377,Once
1,'The Mars Volta',0.201489,0.924377,-5.056,0.452592,0.593463,0.750583,Once
1,'The Mars Volta',0.258876,0.948116,-3.222,0.344632,0.593463,0.750583,Once
1,'Celtic Frost',0.137897,0.934548,-2.465,0.246788,0.564754,0.662673,Once
1,Vader,0.165592,0.983296,-5.917,0.178279,0.585739,0.63726,Once
1,'Vital Remains',0.223621,0.987053,-7.177,0.195008,0.456777,0.489214,Once
1,Primus,0.564971,0.903268,-5.055,0.453674,0.595382,0.728713,Once
1,Sirenia,0.497573,0.960709,-3.193,0.34733,0.59229,0.569098,Once
1,Kataklysm,0.514614,0.87028,-5.666,0.172259,0.607335,0.602356,Once
1,'Bolt Thrower',0.343391,0.898381,-7.232,0.332381,0.571846,0.617416,Once
1,'Inimigos da HP',0.508938,0.893567,-4.208,0.205168,0.521939,0.401541,Once
1,Carcass,0.157328,0.990018,-4.663,0.238269,0.597238,0.664786,Once
1,'Celtic Frost',0.309774,0.71428,-3.104,0.330405,0.564754,0.662673,Once
1,'The Mars Volta',0.182231,0.953368,-2.526,0.461512,0.593463,0.750583,Once
1,'Vital Remains',0.308626,0.97499,-6.305,0.124668,0.456777,0.489214,Once
1,'Bolt Thrower',0.444024,0.861926,-7.707,0.327932,0.571846,0.617416,Once
1,'Bolt Thrower',0.233382,0.96495,-6.395,0.249578,0.571846,0.617416,Once
1,Carcass,0.193347,0.957294,-7.664,0.164755,0.597238,0.664786,Once
1,'The Mars Volta',0.341896,0.948512,-5.993,0.298083,0.593463,0.750583,Once
1,Vader,0.202984,0.943254,-7.188,0.291166,0.585739,0.63726,Once
1,'Vital Remains',0.237922,0.97018,-7.848,0.148774,0.456777,0.489214,Once
1,'The Mars Volta',0.4003,0.318523,-17.459,0.315033,0.593463,0.750583,Once
1,'Ed Alleyne-Johnson',0.481693,0.157032,-20.149,0.065865,0.475128,0.376627,Once
1,Carcass,0.289845,0.91396,-13.626,0.1695,0.597238,0.664786,Once
1,Therion,0.225679,0.752352,-6.994,0.22355,0.592382,0.640741,Once
1,'Vital Remains',0.312523,0.934663,-7.363,0.167921,0.456777,0.489214,Once
1,Carcass,0.276209,0.783018,-13.463,0.297407,0.597238,0.664786,Once
1,'Vital Remains',0.292849,0.994819,-6.785,0.154581,0.456777,0.489214,Once
1,Vader,0.308495,0.97351,-5.19,0.20268,0.585739,0.63726,Once
1,Primus,0.555368,0.770872,-5.746,0.231795,0.595382,0.728713,Once
1,'Abysmal Dawn',0.244144,0.95212,-6.204,0.119806,0.504195,0.501179,Once
1,Carcass,0.346903,0.981089,-4.917,0.239264,0.597238,0.664786,Once
1,'Slim Dusty',0.801229,0.518493,-8.544,0,0.681447,0.515831,Once
1,'The Mars Volta',0.255858,0.993092,-5.401,0.255657,0.593463,0.750583,Once
1,Kataklysm,0.410356,0.984532,-4.144,0.246528,0.607335,0.602356,Once
1,'Bolt Thrower',0.351292,0.836601,-7.243,0.265665,0.571846,0.617416,Once
1,Vader,0.188674,0.985979,-5.037,0.349685,0.585739,0.63726,Once
1,'Elliott Smith',0.334922,0.212268,-18.719,0.37864,0.611951,0.761373,Once
1,'Bolt Thrower',0.447543,0.928313,-7.024,0.26659,0.571846,0.617416,Once
1,'Abysmal Dawn',0.447918,0.972305,-6.1,0.181455,0.504195,0.501179,Once
1,Carcass,0.191262,0.996281,-5.106,0.253596,0.597238,0.664786,Once
1,'Abysmal Dawn',0.232661,0.986143,-5.369,0.095993,0.504195,0.501179,Once
1,Kent,0.579631,0.684753,-7.578,0.176135,0.7321,0.678119,Once
1,'Children of Bodom',0.375807,0.987412,-2.847,0.283023,0.60839,0.717562,Once
1,Metallica,0.284933,0.968406,-12.179,0.411737,0.820659,0.864243,Once
1,Vader,0.295335,0.994551,-5.582,0.33,0.585739,0.63726,Repeat
1,'The Mars Volta',0.233691,0.998627,-3.731,0.351168,0.593463,0.750583,Once
1,Carcass,0.329354,0.783515,-8.179,0.430715,0.597238,0.664786,Once
1,'The Mars Volta',0.441888,0.977174,-4.39,0.411826,0.593463,0.750583,Once
1,Kataklysm,0.523006,0.990662,-3.888,0.191916,0.607335,0.602356,Once
1,'Red Hot Chili Peppers',0.282041,0.980291,-0.367,0.411063,0.825683,0.846927,Once
1,'Third Eye Blind',0.506308,0.849504,-3.573,0.261808,0.607558,0.700123,Once
1,'Third Eye Blind',0.650125,0.932922,-4.744,0.223033,0.607558,0.700123,Once
1,'The Wallflowers',0.593181,0.897129,-6.24,0.268961,0.595882,0.6434,Once
1,'The Rolling Stones',0.297867,0.956282,-3.768,0.264921,0.778175,0.88428,Repeat
1,Candlebox,0.419661,0.824241,-6.073,0.212828,0.575378,0.587224,Once
1,Coldplay,0.428619,0.729982,-4.747,0.687581,0.949954,0.881036,Once
1,Hinder,0.450065,0.862546,-4.676,0.360511,0.598014,0.545954,Once
1,Creed,0.432257,0.853938,-5.928,0.293537,0.607665,0.708049,Once
1,'The Rolling Stones',0.345439,0.667487,-5.645,0.259091,0.778175,0.88428,Repeat
1,'The Black Crowes',0.444034,0.946271,-2.939,0.238743,0.588999,0.712184,Once
1,'Hootie & the Blowfish',0.404596,0.808063,-5.727,0.186109,0.588933,0.630466,Once
1,Coldplay,0.456698,0.567009,-6.199,0.372545,0.949954,0.881036,Repeat
1,Shinedown,0.473927,0.805888,-4.099,0.386396,0.624073,0.704565,Once
1,Creed,0.417738,0.93114,-4.709,0.429453,0.607665,0.708049,Once
1,'The Black Crowes',0.68367,0.764325,-3.438,0.226612,0.588999,0.712184,Once
1,'Jason Aldean',0.695558,0.754932,-3.925,0.239291,0.839449,0.710145,Once
1,Shinedown,0.540582,0.727678,-5.181,0.365278,0.624073,0.704565,Repeat
1,'The Black Crowes',0.474377,0.47706,-6.303,0.304358,0.588999,0.712184,Once
1,'Jack Pe?ate',0.6007,0.898244,-4.429,0.241531,0.550001,0.496368,Repeat
1,'The Rolling Stones',0.394016,0.620517,-6.036,0.289246,0.778175,0.88428,Repeat
1,'matchbox twenty',0.536267,0.827988,-4.393,0.278791,0.607153,0.682763,Once
1,'Red Hot Chili Peppers',0.551361,0.211983,-13.525,0.413864,0.825683,0.846927,Once
1,'Keny Arkana',0.43396,0.398685,-7.336,0.147253,0.576158,0.47001,Loved
1,'Collective Soul',0.363906,0.628871,-6.758,0.2565,0.594292,0.664658,Once
1,'The Cranberries',0.385154,0.922408,-2.947,0.360015,0.735365,0.733817,Once
1,'Ennio Morricone',0.61439,0.265805,-13.05,0.028126,0.608198,0.729447,Once
1,Coldplay,0.611523,0.554872,-5.752,0.469012,0.949954,0.881036,Repeat
1,'Hayes Carll',0.721887,0.568953,-6.037,0.152246,0.555249,0.555445,Loved
1,'The Wallflowers',0.429701,0.885395,-3.791,0.259663,0.595882,0.6434,Repeat
1,Apocalyptica,0.540705,0.832383,-6.236,0.203911,0.608452,0.685666,Repeat
1,'matchbox twenty',0.465055,0.646145,-7.235,0.241234,0.607153,0.682763,Once
1,Creed,0.381227,0.69907,-5.758,0.58443,0.607665,0.708049,Once
1,Lifehouse,0.443753,0.949978,-2.259,0.481346,0.650006,0.67222,Once
1,'Third Eye Blind',0.448765,0.924564,-5.467,0.304572,0.607558,0.700123,Repeat
1,Coldplay,0.275731,0.795769,-5.657,0.35398,0.949954,0.881036,Once
1,Shinedown,0.305899,0.985441,-2.683,0.325043,0.624073,0.704565,Once
1,Dishwalla,0.427598,0.216083,-9.128,0.432423,0.567504,0.553959,Once
1,'Jason Aldean',0.573484,0.628821,-6.679,0.269468,0.839449,0.710145,Once
1,'The Rolling Stones',0.497263,0.584527,-6.72,0.175731,0.778175,0.88428,Once
1,'Wir sind Helden',0.829856,0.658645,-6.749,0.085131,0.563367,0.531105,Repeat
1,Creed,0.542726,0.92081,-3.232,0.465036,0.607665,0.708049,Once
1,'Goo Goo Dolls',0.423531,0.890608,-5.666,0.290732,0.742531,0.745723,Once
1,Coldplay,0.264133,0.481102,-7.754,0.419698,0.949954,0.881036,Once
1,'Red Hot Chili Peppers',0.538542,0.493969,-8.081,0.706296,0.825683,0.846927,Once
1,Candlebox,0.481527,0.43935,-13.326,0.193721,0.575378,0.587224,Once
1,'Jason Aldean',0.43547,0.654105,-5.807,0.26843,0.839449,0.710145,Once
1,'Hootie & the Blowfish',0.525766,0.722296,-6.856,0.261427,0.588933,0.630466,Once
1,'Alan Jackson',0.625859,0.449308,-12.384,0.276666,0.75849,0.700951,Once
1,'Alan Jackson',0.595094,0.315776,-9.241,0.389294,0.75849,0.700951,Once
1,'matchbox twenty',0.435794,0.784291,-5.336,0.584605,0.607153,0.682763,Once
1,'Jonas Brothers',0.590039,0.683972,-3.877,0.461598,0.640631,0.683686,Repeat
1,'Jill Scott',0.77396,0.489158,-8.469,0.19324,0.598887,0.740128,Once
1,'Amy Winehouse',0.794522,0.8212,-3.722,0.402951,0.7177,0.758757,Once
1,'Danilo Montero',0.476073,0.506592,-6.845,0.205423,0.586087,0.483669,Repeat
1,Plies,0.608236,0.632605,-5.959,0.158591,0.586655,0.686748,Once
1,Orishas,0.864293,0.519207,-11.718,0.248736,0.575439,0.555671,Repeat
1,'Danity Kane',0.613091,0.649443,-8.086,0.348904,0.648309,0.63135,Once
1,'Brother Ali',0.820273,0.570797,-6.288,0.272624,0.585307,0.626461,Once
1,'Lily Allen',0.543388,0.916789,-6.63,0.380529,0.805032,0.765911,Once
1,Mal?,0.467459,0.641472,-5.748,0.232307,0.806277,0.467347,Repeat
1,'The Country Gentlemen',0.467152,0.584666,-11.591,0.065865,0.508893,0.454449,Once
1,'Dream Warriors',0.760032,0.79612,-3.797,0.081419,0.489219,0.431793,Once
1,'Andr?s Cepeda',0.674546,0.424633,-8.645,0.304887,0.715805,0.496592,Repeat
1,'Craig David',0.662486,0.781493,-7.404,0.209132,0.593018,0.657077,Once
1,Orishas,0.905018,0.694791,-5.982,0.278751,0.575439,0.555671,Once
1,'Miley Cyrus',0.514903,0.756156,-3.445,0.265212,0.839316,0.819782,Once
1,'Drag the River',0.535013,0.194144,-15.358,0.071267,0.484063,0.498267,Once
1,'Lady Gaga',0.786341,0.90203,-5.267,0.44852,0.840777,0.855317,Once
1,'Beastie Boys',0.672503,0.920185,-6.206,0.312974,0.668952,0.805404,Repeat
1,Rihanna,0.56943,0.706491,-5.603,0.482117,0.863403,0.85159,Once
1,'Andr?s Cepeda',0.650681,0.549266,-7.486,0.295236,0.715805,0.496592,Repeat
1,'Mariah Carey',0.701201,0.709282,-6.259,0.508645,0.809542,0.836918,Once
1,'Toni Braxton',0.76402,0.673226,-5.272,0.033807,0.666391,0.711039,Once
1,'Brother Ali',0.786865,0.797444,-4.495,0.202328,0.585307,0.626461,Once
1,Orishas,0.820893,0.80852,-5.855,0.333162,0.575439,0.555671,Once
1,'Andr?s Cepeda',0.518087,0.387084,-9.277,0.213891,0.715805,0.496592,Once
1,Moderatto,0.494848,0.763692,-6.385,0.322461,0.554126,0.452909,Once
1,'Trey Songz',0.742752,0.859769,-4.978,0.100641,0.851031,0.768629,Once
1,Lloyd,0.633226,0.415299,-9.248,0.11745,0.651306,0.612294,Once
1,112,0.540598,0.691118,-10.728,0.067465,0.594442,0.612164,Once
1,Plies,0.69361,0.601601,-4.011,0.327596,0.586655,0.686748,Once
1,'M?che?l ? S?illeabh?in',0.236489,0.174371,-16.95,0,0.392012,0.28911,Once
1,Orishas,0.843748,0.73201,-5.739,0.315737,0.575439,0.555671,Once
1,Orishas,0.800968,0.520045,-9.566,0.291401,0.575439,0.555671,Repeat
1,'Daddy Yankee',0.758592,0.898486,-4.797,0.352405,0.811312,0.697673,Once
1,'Daddy Yankee',0.806381,0.873509,-3.552,0.403737,0.811312,0.697673,Once
1,Orishas,0.840447,0.940202,-3.916,0.202395,0.575439,0.555671,Once
1,Orishas,0.865806,0.781782,-9.87,0.338652,0.575439,0.555671,Once
1,'Switchblade Symphony',0.474988,0.640238,-10.861,0.290145,0.529352,0.457884,Repeat
1,'Ricardo Arjona',0.411139,0.607081,-5.07,0.364395,0.798727,0.617812,Once
1,'The All-American Rejects',0.40068,0.866723,-4.189,0.23625,0.612991,0.64182,Once
1,'Despina Vandi',0.827229,0.640509,-4.42,0.003801,0.737395,0.413074,Repeat
1,Coldplay,0.493038,0.175536,-16.364,0.39351,0.949954,0.881036,Once
1,Zion,0.620472,0.755399,-7.484,0.279567,0.540384,0.471431,Repeat
1,'Mariah Carey',0.801008,0.674387,-6.84,0.353053,0.809542,0.836918,Once
1,'Luis Fonsi',0.477219,0.552283,-6.771,0.451058,0.821777,0.622643,Once
1,'Britney Spears',0.802217,0.654565,-5.628,0.31399,0.787238,0.835159,Once
1,Orishas,0.856129,0.763883,-4.509,0.454909,0.575439,0.555671,Repeat
1,'Company Flow',0.563502,0.674812,-8.135,0.145306,0.481972,0.5603,Once
1,Casual,0.664514,0.861614,-8.528,0.041556,0.524907,0.481789,Once
1,'Arctic Monkeys',0.54958,0.924971,-4.741,0.434411,0.884583,0.817253,Repeat
1,'Maelo Ruiz',0.674956,0.867472,-4.949,0.109074,0.584212,0.475089,Once
1,'Ashlee Simpson',0.581883,0.819741,-3.497,0.48158,0.580925,0.644927,Once
1,'Miley Cyrus',0.330086,0.563995,-5.466,0.312273,0.839316,0.819782,Repeat
1,'The Duhks',0.619273,0.885273,-4.945,0.151982,0.470574,0.474246,Once
1,'Miley Cyrus',0.411922,0.946161,-3.03,0.230826,0.839316,0.819782,Once
1,'Justin Timberlake',0.708269,0.732165,-6.878,0,0.870714,0.827381,Once
1,Orishas,0.854281,0.773153,-7.086,0.293939,0.575439,0.555671,Once
1,'The All-American Rejects',0.560129,0.923563,-3.964,0.248609,0.612991,0.64182,Once
1,Hieroglyphics,0.651002,0.936911,-4.653,0.194622,0.571398,0.624203,Once
1,'Otros Aires',0.714612,0.864481,-4.582,0.336403,0.492158,0.376219,Repeat
1,Rihanna,0.757274,0.816937,-4.549,0.238091,0.863403,0.85159,Once
1,Blackstreet,0.554567,0.226551,-19.565,0.09649,0.636772,0.62246,Once
1,'The Grascals',0.616075,0.348481,-8.257,0,0.498424,0.478059,Once
1,'Lily Allen',0.842189,0.25014,-13.782,0.288046,0.805032,0.765911,Once
1,'Musiq Soulchild',0.599393,0.629182,-4.668,0.164209,0.58722,0.655136,Once
1,'Keri Hilson',0.598129,0.50125,-6.215,0.212318,0.607007,0.677592,Once
1,Shakira,0.630631,0.411847,-13.242,0.295424,0.90628,0.808631,Once
1,Orishas,0.661489,0.949816,-3.922,0.16931,0.575439,0.555671,Once
1,'Kelly Clarkson',0.462727,0.642486,-5.214,0.348686,0.760781,0.755753,Once
1,'Mariah Carey',0.473019,0.736755,-5.496,0.379816,0.809542,0.836918,Once
1,'Danilo Montero',0.645091,0.893854,-5.795,0.078182,0.586087,0.483669,Once
1,Pambo,0.575779,0.431928,-8.861,0.328012,0.528898,0.411497,Once
1,Orishas,0.882525,0.678373,-6.682,0.270468,0.575439,0.555671,Once
1,'The Killers',0.458607,0.981441,-4.608,0.66067,0.813577,0.778862,Once
1,'Christina Aguilera',0.674379,0.440777,-7.595,0.399203,0.716011,0.809097,Repeat
1,'Baby Bash',0.692276,0.454938,-10.443,0,0.579576,0.611958,Once
1,Rihanna,0.745321,0.784275,-5.888,0.285515,0.863403,0.85159,Once
1,'Tokio Hotel',0.579578,0.73106,-5.302,0.561055,0.590931,0.62874,Repeat
1,'The Killers',0.691749,0.942675,-3.593,0.366445,0.813577,0.778862,Once
1,'Lalah Hathaway',0.406386,0.406621,-8.226,0.175375,0.577067,0.577418,Once
1,'The All-American Rejects',0.490348,0.90868,-4.095,0.312651,0.612991,0.64182,Once
1,'Kelly Clarkson',0.450381,0.785364,-4.768,0.260813,0.760781,0.755753,Once
1,'Tony Trischka',0.37131,0.273985,-17.897,0,0.448157,0.47802,Once
1,'Barry Tuckwell/Academy of St Martin-in-the-Fields/Sir Neville Marriner',0.177738,0.026435,-23.176,0,0.420625,0.138184,Repeat
1,'Andr?s Calamaro',0.592302,0.756061,-6.567,0.413707,0.66685,0.574434,Once
1,'Las Ardillitas De Lalo Guerrero',0.722105,0.228558,-15.452,0.165767,0.459183,0.27235,Once
1,Rihanna,0.703204,0.9066,-5.888,0.318497,0.863403,0.85159,Once
1,'B?la Fleck',0.620078,0.664274,-9.122,0.070311,0.546477,0.608699,Once
1,'Andr?s Cepeda',0.600411,0.617818,-7.311,0.27731,0.715805,0.496592,Once
1,'The Grascals',0.352482,0.650183,-6.201,0.030534,0.498424,0.478059,Once
1,Common,0.7309,0.850468,-3.286,0.209591,0.764122,0.801139,Once
1,'F.L.Y. - Fast Life Yungstaz',0.747127,0.762298,-5.198,0,0.195801,0.194557,Repeat
1,Timbaland,0.912656,0.743046,-6.844,0.082993,0.619179,0.793303,Once
0.987952,'Mark Stewart',0.362332,0.971806,-6.639,0,0.441596,0.457668,Repeat
0.987952,'The Lonely Island',0.59057,0.816209,-4.24,0.321101,0.611292,0.635586,Repeat
0.987952,Flyleaf,0.439264,0.963585,-4.276,0.554592,0.601001,0.675219,Repeat
0.987952,'Virgin Prunes',0.320879,0.733604,-5.786,0.085461,0.496312,0.468241,Repeat
0.987952,'Jets to Brazil',0.317223,0.708785,-7.03,0.208501,0.521879,0.534636,Repeat
0.987952,Yellowcard,0.430909,0.749185,-5.401,0.260247,0.629777,0.697357,Once
0.987952,'Relient K',0.562748,0.77157,-4.236,0.225527,0.579388,0.687899,Repeat
0.987952,'Bootsy Collins',0.789344,0.908873,-6.732,0.333252,0.571137,0.657946,Repeat
0.987952,Copeland,0.429294,0.627901,-6.323,0.287172,0.56436,0.62365,Once
0.987952,Copeland,0.519086,0.92325,-4.065,0.31506,0.56436,0.62365,Repeat
0.987952,'The Red Jumpsuit Apparatus',0.501807,0.52122,-8.086,0.35857,0.610358,0.662273,Repeat
0.987952,'Ice Cube',0.827437,0.785535,-5.575,0.178085,0.779156,0.744377,Once
0.987952,'Less Than Jake',0.195661,0.984073,-2.534,0.143695,0.585936,0.672652,Once
0.987952,'The Cranberries',0.512168,0.879254,-12.573,0.286858,0.735365,0.733817,Once
0.987952,'Lady Gaga',0.786341,0.90203,-5.267,0.44852,0.840777,0.855317,Once
0.987952,'The Rocket Summer',0.50869,0.939062,-5.025,0.109966,0.543903,0.581454,Repeat
0.987952,'Mikl?s R?zsa',0.190921,0.045574,-28.54,0.09852,0.493327,0.424632,Repeat
0.987952,'Vienio & Pele',0.725852,0.74845,-11.399,0,0.430511,0.262203,Once
0.987952,'KT Tunstall',0.403236,0.576179,-7.9,0.121124,0.593015,0.660614,Once
0.987952,'Damien Rice',0.642134,0.284141,-15.306,0.551786,0.707669,0.691589,Repeat
0.987952,Copeland,0.467659,0.797781,-5.533,0.234639,0.56436,0.62365,Repeat
0.987952,Trafik,0.699453,0.876993,-7.53,0,0.403747,0.397773,Repeat
0.987952,'Led Zeppelin',0.451339,0.422879,-12.002,0.441035,0.824768,0.876454,Repeat
0.987952,Paramore,0.509486,0.847851,-5.263,0.359062,0.853366,0.788881,Once
0.987952,'Dead Kennedys',0.314465,0.981386,-4.752,0.280787,0.602033,0.729394,Repeat
0.987952,'Angels & Airwaves',0.529908,0.939009,-5.665,0.395056,0.593897,0.671471,Repeat
0.987952,'Last Tuesday',0.602107,0.849535,-4.927,0,0.368792,0.327711,Once
0.987952,'The Red Jumpsuit Apparatus',0.509158,0.932783,-2.718,0.521093,0.610358,0.662273,Once
0.987952,'Secondhand Serenade',0.524851,0.306503,-9.881,0.248521,0.591845,0.600371,Repeat
0.987952,'The Last Goodnight',0.486812,0.756909,-4.493,0.17308,0.522026,0.448891,Once
0.987952,'Cobra Starship',0.604313,0.888149,-5.56,0.444783,0.611755,0.624205,Repeat
0.987952,'Forgive Durden',0.313129,0.524762,-7.768,0.156121,0.481664,0.421269,Once
0.987952,'Matt Nathanson',0.729579,0.591931,-10.752,0.085131,0.588481,0.644241,Once
0.987952,'Stephen Malkmus & The Jicks',0.393727,0.728328,-7.219,0.201093,0.565177,0.518134,Repeat
0.987952,Caribou,0.689721,0.814963,-7.372,0.502695,0.783193,0.658792,Repeat
0.987952,'White Rabbits',0.524082,0.639853,-15.096,0.358008,0.53943,0.533159,Once
0.987952,'Nestor Torres',0.748119,0.692039,-5.764,0.015213,0.429745,0.354743,Loved
0.987952,'Railroad Earth',0.553839,0.788552,-4.655,0.349385,0.547495,0.55063,Once
0.987952,'The Last Goodnight',0.737484,0.830001,-5.102,0.16894,0.522026,0.448891,Once
0.987952,Paramore,0.518623,0.916676,-3.551,0.452116,0.853366,0.788881,Repeat
0.987952,'CCCP Fedeli alla linea',0.359149,0.589566,-7.109,0.110031,0.52354,0.417922,Once
0.987952,'Forgive Durden',0.384153,0.217779,-11.567,0.169925,0.481664,0.421269,Once
0.987952,'Stereo MC\'s',0.781547,0.816008,-7.543,0.099082,0.564416,0.53375,Repeat
0.987952,'Julien Clerc',0.74612,0.420509,-10.308,0,0.568573,0.454518,Repeat
0.987952,'The Cranberries',0.654373,0.256085,-15.757,0.14367,0.735365,0.733817,Once
0.987952,'Bleeding Through',0.382609,0.970979,-6.681,0.041556,0.539615,0.581178,Repeat
0.987952,'Jamie Foxx',0.742485,0.416447,-7.725,0.146166,0.607241,0.715266,Loved
0.987952,'Matt Nathanson',0.44924,0.378371,-10.027,0.110031,0.588481,0.644241,Once
0.987952,blink-182,0.530574,0.737633,-5.636,0.614534,0.76492,0.815537,Repeat
0.987952,Basshunter,0.587117,0.989487,-5.719,0.224017,0.69237,0.627213,Once
0.987952,'James Clay',0.637377,0.775117,-5.645,0.052101,0.387001,0.327244,Repeat
0.987952,3OH!3,0.753129,0.713354,-5.43,0,0.589061,0.625671,Repeat
0.987952,AFI,0.182252,0.949618,-3.527,0.453621,0.60462,0.731519,Once
0.987952,'Matt Nathanson',0.337209,0.88462,-3.783,0.320693,0.588481,0.644241,Once
0.987952,'The Cranberries',0.492596,0.684994,-10.146,0.258957,0.735365,0.733817,Repeat
0.987952,'Element 101',0.400549,0.695932,-5.401,0.261648,0.454237,0.350931,Repeat
0.987952,'Sakis Rouvas',0.760889,0.604691,-7.77,0,0.577411,0.458948,Once
0.987952,'Tokio Hotel',0.569126,0.924449,-3.446,0.190634,0.590931,0.62874,Once
0.987952,'Silvain Vanot',0.353565,0.152002,-20.786,0,0.378584,0.198277,Repeat
0.987952,Coldplay,0.428619,0.729982,-4.747,0.687581,0.949954,0.881036,Repeat
0.987952,'Lady Gaga',0.692977,0.806396,-4.75,0.449029,0.841341,0.857096,Repeat
0.987952,'The Cranberries',0.318141,0.43638,-7.658,0.288904,0.735365,0.733817,Once
0.987952,Ke$ha,0.71772,0.712825,-5.885,0.263295,0.769932,0.743087,Once
0.987952,'Lady Gaga',0.357798,0.696906,-4.167,0.458315,0.841341,0.857096,Once
0.987952,'Mayday Parade',0.507194,0.961362,-2.764,0.47132,0.629003,0.663647,Repeat
0.987952,'Matt Nathanson',0.630681,0.849059,-4.25,0.191698,0.588481,0.644241,Repeat
0.987952,'Satanic Surfers',0.300973,0.764213,-5.234,0.137268,0.524946,0.483287,Repeat
0.987952,'Circle of Dead Children',0.26332,0.800935,-9.104,0.015278,0.455821,0.446162,Repeat
0.987952,'Slick Shoes',0.540694,0.942673,-4.551,0.303424,0.514829,0.474089,Repeat
0.987952,'Simple Plan',0.364011,0.872479,-7.885,0.177584,0.62034,0.627557,Once
0.987952,Declaime,0.567693,0.850588,-4.062,0.117486,0.454937,0.383052,Repeat
0.987952,Evanescence,0.35114,0.786667,-5.917,0.408234,0.673427,0.78027,Once
0.987952,'Rise Against',0.54445,0.929749,-3.436,0.676122,0.831758,0.732293,Repeat
0.987952,'The Red Jumpsuit Apparatus',0.532806,0.931407,-4.249,0.264213,0.610358,0.662273,Once
0.987952,'The Killers',0.458607,0.981441,-4.608,0.66067,0.813577,0.778862,Repeat
0.987952,'Tokio Hotel',0.579578,0.73106,-5.302,0.561055,0.590931,0.62874,Repeat
0.987952,'The Red Jumpsuit Apparatus',0.521462,0.609375,-6.898,0.218905,0.610358,0.662273,Repeat
0.987952,Yellowcard,0.551141,0.943447,-5.551,0.295728,0.629777,0.697357,Repeat
0.987952,'Dashboard Confessional',0.844253,0.34874,-11.416,0.299248,0.599409,0.673764,Once
0.987952,'Matt Nathanson',0.590283,0.42298,-8.887,0.073104,0.588481,0.644241,Once
0.987952,'Larry Tee',0.72732,0.864384,-4.332,0,0.446361,0.413578,Loved
0.987952,'Joaqu?n Sabina',0.699507,0.509368,-11.563,0.383394,0.733369,0.535081,Loved
0.987952,'Brian Culbertson',0.686789,0.54969,-9.317,0.172449,0.681689,0.569548,Once
0.987952,'Watermelon Slim',0.378526,0.734261,-4.725,0,0.418367,0.366735,Repeat
0.987952,'Taking Back Sunday',0.380821,0.786652,-5.033,0.270086,0.6047,0.716994,Once
0.987952,'Mayday Parade',0.444363,0.791382,-3.852,0.36298,0.629003,0.663647,Repeat
0.987952,Flyleaf,0.481473,0.826273,-3.642,0.481798,0.601001,0.675219,Repeat
0.987952,Pleymo,0.188919,0.656515,-5.981,0.15795,0.514636,0.445317,Repeat
0.987952,'Lady Gaga',0.748484,0.948403,-3.663,0.343636,0.841341,0.857096,Once
0.987952,'David Crowder Band',0.470635,0.957357,-7.022,0.257126,0.577952,0.659158,Once
0.987952,AFI,0.467015,0.441461,-8.867,0.36607,0.60462,0.731519,Once
0.987952,Jewel,0.506439,0.267081,-11.651,0.4974,0.546028,0.658889,Once
0.987952,'Boys Like Girls',0.487869,0.947896,-2.908,0.221566,0.620771,0.651682,Once
0.987952,'The Red Jumpsuit Apparatus',0.463551,0.644202,-3.869,0.195635,0.610358,0.662273,Once
0.987952,Paramore,0.424366,0.936984,-3.424,0.555888,0.853366,0.788881,Repeat
0.987952,'The White Stripes',0.754382,0.472932,-7.654,0.721299,0.785677,0.799087,Once
0.987952,Yello,0.696873,0.886556,-8.833,0.324457,0.542342,0.617505,Repeat
0.987952,'Dashboard Confessional',0.460815,0.800499,-5.637,0.385266,0.599409,0.673764,Once
0.987952,'The Rocket Summer',0.585145,0.876539,-4.733,0.133736,0.543903,0.581454,Once
0.987952,Muse,0.670689,0.864658,-5.744,0.571282,0.807055,0.82044,Once
0.987952,'Oak Ridge Boys',0.561777,0.207037,-20.752,0,0.500199,0.520325,Repeat
0.987952,'Lady Gaga',0.706927,0.824635,-5.21,0.346195,0.841341,0.857096,Repeat
0.987952,'Beastie Boys',0.776853,0.92002,-6.995,0.252436,0.668952,0.805404,Repeat
0.987952,'Prophet Posse',0.87366,0.538456,-7.504,0.135636,0.450639,0.372477,Repeat
0.987952,Rufio,0.308553,0.959861,-4.461,0.083112,0.530865,0.560661,Repeat
0.987952,'Peter Tosh',0.713641,0.563654,-7.554,0.222644,0.599815,0.699049,Repeat
0.987952,'Alicia Keys',0.746253,0.541741,-5.177,0.152906,0.812304,0.81851,Once
0.987952,'Napalm Death',0.17627,0.527002,-6.641,0,0.583112,0.704542,Repeat
0.987952,'Funeral for a Friend',0.301644,0.927485,-4.393,0.245722,0.572611,0.652682,Repeat
0.987952,'Matt Nathanson',0.613166,0.777878,-4.823,0.258285,0.588481,0.644241,Once
0.987952,AFI,0.678206,0.653563,-9.158,0.501791,0.60462,0.731519,Repeat
0.987952,'Dashboard Confessional',0.424015,0.832982,-6.735,0.341859,0.599409,0.673764,Once
0.987952,T.I.,0.60208,0.800075,-6.803,0,0.852922,0.824712,Once
0.993056,'Daniel Bedingfield',0.542586,0.307633,-9.483,0.219723,0.55239,0.457771,Repeat
0.993056,'Angus & Julia Stone',0.555237,0.140475,-17.501,0.295674,0.810596,0.669145,Repeat
0.993056,'Fleet Foxes',0.583987,0.270226,-8.5,0.429686,0.614472,0.72158,Repeat
0.993056,'Angus & Julia Stone',0.554991,0.315089,-16.123,0.303149,0.810596,0.669145,Repeat
0.993056,'Angus & Julia Stone',0.847064,0.33585,-11.602,0.320547,0.810596,0.669145,Repeat
0.993056,'Daniel Bedingfield',0.669313,0.799476,-5.871,0.1002,0.55239,0.457771,Repeat
0.993056,'Nick Drake',0.458241,0.11107,-21.257,0.199882,0.608093,0.759547,Once
0.993056,Lifehouse,0.514707,0.60062,-6.198,0.235556,0.650006,0.67222,Once
0.993056,'Huey Lewis & The News',0.567793,0.757035,-11.4,0.265458,0.603132,0.627721,Repeat
0.993056,'Nick Drake',0.480692,0.093439,-21.086,0.269819,0.608093,0.759547,Once
0.993056,'Arctic Monkeys',0.580395,0.970531,-4.294,0.214904,0.884583,0.817253,Repeat
0.993056,'Angus & Julia Stone',0.654635,0.660625,-8.316,0.486999,0.810596,0.669145,Repeat
0.993056,'The Black Keys',0.591723,0.610212,-6.595,0.443505,0.84268,0.800241,Repeat
0.993056,'Jason Reeves',0.528616,0.72336,-6.892,0.092219,0.536362,0.538004,Repeat
0.993056,'Angus & Julia Stone',0.720399,0.220738,-14.52,0.317241,0.810596,0.669145,Repeat
0.993056,'Pixie Lott',0.850944,0.666117,-7.18,0.271213,0.746321,0.631026,Once
0.993056,'Pixie Lott',0.590806,0.464759,-6.629,0.215799,0.746321,0.631026,Once
0.993056,'Marc Moulin',0.81174,0.56522,-10.14,0.131729,0.495665,0.424452,Repeat
0.993056,'Angus & Julia Stone',0.618934,0.457336,-13.313,0.429108,0.810596,0.669145,Repeat
0.993056,'Daniel Bedingfield',0.668664,0.930204,-3.473,0.12499,0.55239,0.457771,Repeat
0.993056,Tigercity,0.672395,0.781418,-6.957,0.055583,0.439245,0.356516,Repeat
0.993056,'Jason Reeves',0.388744,0.682903,-6.778,0.270353,0.536362,0.538004,Repeat
0.993056,'Aretha Franklin',0.447697,0.547934,-9.592,0.197479,0.624227,0.786688,Once
0.993056,'Daniel Bedingfield',0.528042,0.815281,-3.271,0.115134,0.55239,0.457771,Repeat
0.993056,'Tina Dico',0.218973,0.176007,-10.139,0.09649,0.615855,0.493552,Once
0.993056,'Jason Reeves',0.558368,0.354849,-9.203,0.287943,0.536362,0.538004,Repeat
0.993056,'Ornette Coleman',0.175061,0.208383,-15.693,0.124668,0.536402,0.667718,Repeat
0.993056,'The XX',0.952566,0.253203,-12.36,0.491795,0.820594,0.713065,Repeat
0.993056,'Tina Dico',0.611968,0.248891,-8.836,0.112606,0.615855,0.493552,Once
0.993056,Shakira,0.696873,0.725467,-5.977,0.274186,0.90628,0.808631,Repeat
0.993056,'Jack Johnson',0.553212,0.313517,-9.071,0.187826,0.75659,0.736065,Repeat
0.993056,'Daniel Bedingfield',0.568553,0.829329,-3.837,0.140136,0.55239,0.457771,Repeat
0.993056,'Fleet Foxes',0.325164,0.064877,-20.425,0.423622,0.614472,0.72158,Once
0.993056,'Angus & Julia Stone',0.84839,0.380849,-8.146,0.294436,0.810596,0.669145,Repeat
0.993056,'Tina Dico',0.330313,0.41804,-6.206,0.22055,0.615855,0.493552,Once
0.993056,'John Mayer',0.259657,0.388038,-12.557,0.303894,0.795823,0.811578,Once
0.993056,'Frank Black',0.531141,0.907203,-6.817,0.18923,0.524308,0.617242,Once
0.993056,'Daniel Bedingfield',0.820931,0.685307,-5.096,0.114959,0.55239,0.457771,Once
0.993056,'Tina Dico',0.459368,0.148612,-20.997,0.065865,0.615855,0.493552,Once
0.993056,'Jason Reeves',0.633121,0.466088,-6.779,0.159773,0.536362,0.538004,Repeat
0.993056,'French Kicks',0.595536,0.87645,-4.575,0.087662,0.530615,0.496847,Repeat
0.993056,'The XX',0.624588,0.271446,-13.971,0.524526,0.820594,0.713065,Once
0.993056,'Fleet Foxes',0.356711,0.685951,-5.912,0.509144,0.614472,0.72158,Repeat
0.993056,'French Kicks',0.379063,0.660357,-9.574,0.065865,0.530615,0.496847,Repeat
0.993056,'Junior Boys',0.758318,0.426187,-12.463,0.222884,0.566944,0.607724,Repeat
0.993056,'The Offspring',0.382048,0.956386,-4.003,0.410709,0.751797,0.760531,Repeat
0.993056,'Angus & Julia Stone',0.467814,0.074357,-20.315,0.324519,0.810596,0.669145,Repeat
0.993056,'Bo Kaspers Orkester',0.736481,0.572913,-9.004,0.299061,0.577427,0.475971,Once
0.993056,'Tina Dico',0.594973,0.263334,-11.67,0.163215,0.615855,0.493552,Once
0.993056,'Relient K',0.505944,0.899695,-4.58,0.233235,0.579388,0.687899,Repeat
0.993056,'Pixie Lott',0.740008,0.564376,-6.57,0.184196,0.746321,0.631026,Repeat
0.993056,'S Club 7',0.686027,0.765297,-6.936,0.185523,0.597985,0.557124,Once
0.993056,'The Black Keys',0.329896,0.794961,-6.291,0.27466,0.84268,0.800241,Repeat
0.993056,'Gym Class Heroes',0.683526,0.761318,-4.69,0.215024,0.620729,0.65569,Repeat
0.993056,'Jos? Gonz?lez',0.521894,0.141421,-16.912,0.339988,0.64398,0.663942,Repeat
0.993056,'Angus & Julia Stone',0.491766,0.205694,-14.103,0.330648,0.810596,0.669145,Once
0.993056,'Fleet Foxes',0.50736,0.019961,-14.521,0.395863,0.614472,0.72158,Repeat
0.993056,'Jason Reeves',0.757996,0.690328,-8.083,0.315862,0.536362,0.538004,Repeat
0.993056,'Fleet Foxes',0.537184,0.547784,-7.771,0.472777,0.614472,0.72158,Repeat
0.993056,'Pixie Lott',0.745148,0.782011,-5.025,0.278548,0.746321,0.631026,Repeat
0.993056,'Pixie Lott',0.776896,0.551323,-7.88,0.310724,0.746321,0.631026,Repeat
0.993056,Tigercity,0.768708,0.600097,-5.622,0.082938,0.439245,0.356516,Repeat
0.993056,'Angus & Julia Stone',0.713749,0.083612,-21.454,0.282886,0.810596,0.669145,Repeat
0.993056,'Daniel Bedingfield',0.785159,0.874015,-3.655,0.092191,0.55239,0.457771,Once
0.993056,'Angus & Julia Stone',0.417754,0.533812,-8.19,0.251256,0.810596,0.669145,Once
0.993056,'Amos Lee',0.417779,0.121694,-17.582,0.294194,0.591954,0.668504,Repeat
0.993056,Radiohead,0.317023,0.856932,-6.389,0.393812,0.820399,0.87455,Repeat
0.993056,'Frank Black',0.546178,0.475648,-9.806,0.211414,0.524308,0.617242,Once
0.993056,'Pixie Lott',0.623117,0.796409,-4.598,0.226475,0.746321,0.631026,Once
0.993056,'Paul Brandt',0.6589,0.731641,-6.601,0.051377,0.706541,0.445486,Repeat
0.993056,'Pixie Lott',0.685368,0.879058,-4.418,0.251383,0.746321,0.631026,Once
0.993056,'Angus & Julia Stone',0.795355,0.21111,-10.047,0.302265,0.810596,0.669145,Repeat
0.993056,'Cold War Kids',0.616572,0.688307,-6.473,0.163339,0.678177,0.665518,Repeat
0.993056,'Fleet Foxes',0.572062,0.675773,-6.221,0.362327,0.614472,0.72158,Repeat
0.993056,'Angus & Julia Stone',0.71011,0.018328,-16.247,0.288988,0.810596,0.669145,Repeat
0.993056,'Daniel Bedingfield',0.633798,0.614498,-6.258,0.099183,0.55239,0.457771,Repeat
0.993056,'Frank Black',0.541137,0.733766,-6.791,0.168808,0.524308,0.617242,Once
0.993056,'Miley Cyrus',0.487842,0.679626,-5.029,0.653801,0.839316,0.819782,Loved
0.993056,Sia,0.398109,0.541728,-8.508,0.332521,0.939456,0.762126,Once
0.993056,'Alain Clark',0.494446,0.571063,-7.728,0.13872,0.537846,0.424056,Once
0.993056,'Frank Black',0.388232,0.982617,-5.969,0.190833,0.524308,0.617242,Once
0.993056,'Angus & Julia Stone',0.805503,0.484996,-12.091,0.54438,0.810596,0.669145,Repeat
0.993056,'Pixie Lott',0.564669,0.815385,-5.474,0.354902,0.746321,0.631026,Repeat
0.993056,'The XX',0.262027,0.08142,-15.491,0.470426,0.820594,0.713065,Repeat
0.993056,'Colbie Caillat',0.612085,0.539945,-7.78,0.24133,0.831967,0.700808,Repeat
0.993056,'Angus & Julia Stone',0.916185,0.2526,-13.3,0.274397,0.810596,0.669145,Repeat
0.993056,'Jason Reeves',0.493034,0.331936,-10.245,0.168878,0.536362,0.538004,Repeat
0.993056,'The Kooks',0.707247,0.47073,-8.578,0.206132,0.807711,0.746253,Repeat
0.993056,'The All-American Rejects',0.537587,0.506799,-6.738,0.273631,0.612991,0.64182,Once
0.993056,'Tina Dico',0.353156,0.176137,-11.841,0.255433,0.615855,0.493552,Once
0,Aventura,0.829032,0.5548,-10.042,0.251436,0.709598,0.684085,Repeat
0,'Bikini Kill',0.489339,0.947717,-3.479,0.528186,0.543013,0.59781,Once
0,'Amy Winehouse',0.849124,0.672117,-6.205,0.361326,0.7177,0.758757,Repeat
0,'Jack Johnson',0.598182,0.292797,-11.487,0.498661,0.75659,0.736065,Once
0,'Radney Foster',0.682883,0.588962,-7.987,0.221617,0.513156,0.514795,Once
0,'Radney Foster',0.445439,0.246782,-13.165,0,0.513156,0.514795,Once
0,'John Mayer',0.547651,0.331988,-9.931,0.419635,0.795823,0.811578,Repeat
0,'Zac Brown Band',0.629546,0.565256,-5.829,0.272568,0.775174,0.670358,Repeat
0,Aventura,0.765374,0.573906,-9.375,0.42789,0.709598,0.684085,Repeat
0,'Dashboard Confessional',0.597921,0.773385,-5.005,0.365865,0.599409,0.673764,Once
0,'Alicia Keys',0.556893,0.439593,-8.557,0.260653,0.812304,0.81851,Repeat
0,'Zac Brown Band',0.651158,0.788146,-4.384,0.23536,0.775174,0.670358,Once
0,'Zac Brown Band',0.755663,0.792665,-5.1,0.313686,0.775174,0.670358,Repeat
0,'Bikini Kill',0.360846,0.988041,-3.491,0.314024,0.543013,0.59781,Once
0,'John Mayer',0.422566,0.755932,-6.75,0.29878,0.795823,0.811578,Repeat
0,'Jack Johnson',0.724723,0.4167,-11.509,0.367347,0.75659,0.736065,Repeat
0,'John Mayer',0.506552,0.424806,-14.633,0.383615,0.795823,0.811578,Repeat
0,'The Postal Service',0.702101,0.587292,-6.829,0.35797,0.683905,0.72676,Once
0,'John Mayer',0.52799,0.669036,-7.967,0.385239,0.795823,0.811578,Repeat
0,'Jack Johnson',0.650298,0.594448,-8.144,0.377138,0.75659,0.736065,Once
0,'Jason Mraz',0.526704,0.706293,-6.842,0.227488,0.83496,0.778627,Repeat
0,'La Roux',0.719364,0.764157,-3.253,0.482331,0.797718,0.7015,Once
0,'The Postal Service',0.518315,0.537004,-10.366,0.373514,0.683905,0.72676,Once
0,Jay-Z,0.647211,0.935475,-4.011,0.360789,0.799276,0.869517,Once
0,'Lauryn Hill',0.517393,0.800176,-7.674,0.322762,0.622195,0.756222,Repeat
0,'Dashboard Confessional',0.844253,0.34874,-11.416,0.299248,0.599409,0.673764,Once
0,'Lily Allen',0.782521,0.859614,-7.082,0.336817,0.805032,0.765911,Repeat
0,'Jason Mraz',0.585591,0.213593,-12.43,0.296912,0.83496,0.778627,Repeat
0,'The Spill Canvas',0.653819,0.454396,-8.263,0.325186,0.548743,0.560574,Repeat
0,'Michael Bubl?',0.623729,0.753141,-7.243,0.272711,0.782245,0.716089,Once
0,'Michael Bubl?',0.282804,0.39155,-6.354,0.27267,0.782245,0.716089,Repeat
0,'John Mayer',0.395549,0.526564,-8.164,0.162355,0.795823,0.811578,Once
0,'Michael Bubl?',0.574447,0.609909,-5.848,0.386872,0.782245,0.716089,Once
0,'Michael Bubl?',0.568177,0.405251,-8.37,0.486936,0.782245,0.716089,Repeat
0,'Michael Jackson',0.24028,0.345264,-8.091,0.444398,0.919334,0.892218,Repeat
0,Aventura,0.479362,0.966349,-4.924,0.20624,0.709598,0.684085,Once
0,Aventura,0.730448,0.657075,-8.663,0.29943,0.709598,0.684085,Repeat
0,'Dashboard Confessional',0.364024,0.80803,-2.643,0.252557,0.599409,0.673764,Repeat
0,'Dashboard Confessional',0.460815,0.800499,-5.637,0.385266,0.599409,0.673764,Repeat
0,'Zac Brown Band',0.635438,0.947396,-5.881,0.260051,0.775174,0.670358,Repeat
0,'Colbie Caillat',0.64507,0.509444,-8.002,0.352462,0.831967,0.700808,Repeat
0,'The Postal Service',0.417251,0.79863,-7.071,0.345343,0.683905,0.72676,Once
0,'Zac Brown Band',0.689137,0.575933,-6.618,0.412258,0.775174,0.670358,Repeat
0,India.Arie,0.635129,0.597011,-6.72,0.270207,0.607025,0.684865,Repeat
0,'Jason Mraz',0.611436,0.78726,-7.515,0.407929,0.83496,0.778627,Repeat
0,'Sara Bareilles',0.398451,0.813632,-4.938,0.362849,0.794478,0.709338,Once
0,'Maelo Ruiz',0.576788,0.857993,-4.409,0.118264,0.584212,0.475089,Once
0,'Jason Mraz',0.550035,0.705813,-4.247,0.313422,0.83496,0.778627,Repeat
0,'John Mayer',0.462749,0.54783,-12.524,0.336522,0.795823,0.811578,Repeat
0,'Colbie Caillat',0.612085,0.539945,-7.78,0.24133,0.831967,0.700808,Once
0,'Darius Rucker',0.337623,0.441812,-7.614,0.142858,0.742873,0.601382,Repeat
0,'Leona Lewis',0.328872,0.577139,-3.205,0.374085,0.6306,0.69865,Once
0,'Jason Mraz',0.447651,0.594222,-6.94,0.323768,0.83496,0.778627,Repeat
0,'Jack Johnson',0.711605,0.320116,-14.544,0.406671,0.75659,0.736065,Repeat
0,'Jack Johnson',0.926697,0.385821,-7.495,0.437704,0.75659,0.736065,Repeat
0.991304,'Ronan Keating',0.624201,0.869297,-7.743,0.14925,0.595616,0.587894,Repeat
0.991304,A*Teens,0.753038,0.97645,-1.293,0.342175,0.541382,0.495523,Repeat
0.991304,Cher,0.648063,0.801303,-5.757,0.217782,0.689736,0.73728,Repeat
0.991304,'Katharine McPhee',0.57773,0.509583,-6.838,0.264877,0.563252,0.53738,Repeat
0.991304,Enya,0.192171,0.144422,-17.137,0.364153,0.634264,0.722822,Once
0.991304,'Britney Spears',0.81271,0.745224,-5.682,0.25874,0.787238,0.835159,Once
0.991304,'Natalie Imbruglia',0.511483,0.882881,-5.2,0.315229,0.722672,0.634549,Once
0.991304,Juanes,0.713232,0.87305,-4.768,0.348779,0.763831,0.697338,Once
0.991304,'The Cardigans',0.747101,0.724963,-6.254,0.496677,0.6048,0.684436,Once
0.991304,'Ronan Keating',0.634788,0.28914,-11.925,0.192421,0.595616,0.587894,Repeat
0.991304,'Justin Bieber',0.72335,0.606762,-4.264,0.315267,0.817957,0.836767,Once
0.991304,'Danity Kane',0.613091,0.649443,-8.086,0.348904,0.648309,0.63135,Once
0.991304,'Ronan Keating',0.585562,0.260831,-11.058,0.257243,0.595616,0.587894,Once
0.991304,'Alliance Ethnik',0.810988,0.528278,-7.804,0.042566,0.488053,0.388582,Once
0.991304,Pavement,0.273745,0.718034,-5.028,0.181467,0.581768,0.71565,Once
0.991304,Rihanna,0.56943,0.706491,-5.603,0.482117,0.863403,0.85159,Once
0.991304,'Five Finger Death Punch',0.556103,0.883538,-4.212,0.606977,0.760501,0.716573,Once
0.991304,'Ronan Keating',0.563861,0.961686,-4.799,0.13493,0.595616,0.587894,Once
0.991304,'Alanis Morissette',0.564686,0.555519,-7.308,0.278644,0.617201,0.756306,Once
0.991304,Miranda!,0.322983,0.980042,-4.469,0.291821,0.666563,0.408032,Once
0.991304,'Ronan Keating',0.515601,0.721137,-9.746,0.164753,0.595616,0.587894,Repeat
0.991304,'Emmy the Great',0.589737,0.31038,-13.081,0.214706,0.54477,0.465564,Once
0.991304,'Ronan Keating',0.506546,0.285949,-12.686,0.042566,0.595616,0.587894,Once
0.991304,Enya,0.539204,0.2967,-11.861,0.297106,0.634264,0.722822,Once
0.991304,'Britney Spears',0.802217,0.654565,-5.628,0.31399,0.787238,0.835159,Once
0.991304,'The Black Eyed Peas',0.852035,0.884175,-5.688,0.462558,0.790878,0.78216,Repeat
0.991304,'Ronan Keating',0.554263,0.924692,-4.744,0.100436,0.595616,0.587894,Once
0.991304,Enya,0.470751,0.173055,-15.184,0.26667,0.634264,0.722822,Once
0.991304,'Jack Johnson',0.598182,0.292797,-11.487,0.498661,0.75659,0.736065,Once
0.991304,'Alanis Morissette',0.640878,0.792171,-9.112,0.199271,0.617201,0.756306,Repeat
0.991304,'Alliance Ethnik',0.817491,0.602527,-4.934,0,0.488053,0.388582,Repeat
0.991304,Blur,0.179042,0.919917,-5.322,0,0.742654,0.781663,Repeat
0.991304,'Lady Gaga',0.692977,0.806396,-4.75,0.449029,0.841341,0.857096,Once
0.991304,Miranda!,0.445421,0.973698,-3.325,0.3136,0.666563,0.408032,Once
0.991304,'Ronan Keating',0.502911,0.309047,-11.829,0.190585,0.595616,0.587894,Once
0.991304,Cher,0.637613,0.792399,-4.762,0.188978,0.689736,0.73728,Repeat
0.991304,'Ronan Keating',0.510664,0.320575,-10.678,0.227126,0.595616,0.587894,Once
0.991304,'Jordin Sparks',0.644624,0.676434,-5.185,0.041556,0.628849,0.660198,Once
0.991304,'The Corrs',0.648294,0.844498,-6.962,0.349239,0.631104,0.638465,Repeat
0.991304,Cher,0.596905,0.650044,-8.783,0.113742,0.689736,0.73728,Once
0.991304,'Jonas Brothers',0.490316,0.927873,-3.471,0.337017,0.640631,0.683686,Repeat
0.991304,'Ronan Keating',0.607601,0.25438,-10.626,0.249429,0.595616,0.587894,Once
0.991304,'Kings of Leon',0.441646,0.734173,-6.853,0.466736,0.818382,0.793128,Repeat
0.991304,Enya,0.691075,0.539915,-8.533,0.2778,0.634264,0.722822,Once
0.991304,'Kings of Leon',0.469342,0.834063,-6.77,0.40283,0.818382,0.793128,Once
0.991304,Juanes,0.601485,0.485384,-7.72,0.479393,0.763831,0.697338,Once
0.991304,'Foo Fighters',0.455751,0.920045,-4.291,0.627807,0.797408,0.822081,Repeat
0.991304,'Justin Bieber',0.712083,0.873311,-3.375,0.501697,0.817957,0.836767,Once
0.991304,'Jennifer Hudson',0.52187,0.566927,-4.611,0.239137,0.736051,0.693208,Once
0.991304,'Barry Tuckwell/Academy of St Martin-in-the-Fields/Sir Neville Marriner',0.177738,0.026435,-23.176,0,0.420625,0.138184,Repeat
0.991304,Coldplay,0.364816,0.269192,-10.515,0.428338,0.949954,0.881036,Once
0.991304,'Justin Bieber',0.642309,0.51239,-7.294,0.283972,0.817957,0.836767,Once
0.991304,'Ronan Keating',0.584095,0.542346,-8.214,0.221382,0.595616,0.587894,Once
0.991304,'The White Stripes',0.754382,0.472932,-7.654,0.721299,0.785677,0.799087,Once
0.991304,'Miley Cyrus',0.487842,0.679626,-5.029,0.653801,0.839316,0.819782,Repeat
0.991304,'Christina Aguilera',0.847701,0.841175,-5.611,0.41241,0.716011,0.809097,Once
0.991304,Coldplay,0.264133,0.481102,-7.754,0.419698,0.949954,0.881036,Once
0.991304,'Ronan Keating',0.547848,0.542492,-5.775,0.157512,0.595616,0.587894,Once
0.991304,'Alanis Morissette',0.46096,0.547038,-9.191,0.225201,0.617201,0.756306,Once
0.991304,Enya,0.189699,0.050034,-23.257,0.289524,0.634264,0.722822,Once
0.991304,'Lonnie Gordon',0.623019,0.950126,-5.709,0,0.452245,0.357867,Repeat
1,'Cat Power',0.646845,0.438642,-10.433,0.401079,0.626985,0.734752,Once
1,'Fiona Apple',0.729801,0.666247,-6.031,0.274477,0.657758,0.726322,Once
1,'Jorge Drexler',0.399284,0.46656,-9.57,0.192679,0.562271,0.549936,Once
1,Muse,0.55309,0.832396,-5.61,0.64496,0.807055,0.82044,Once
1,'Citizen Cope',0.596832,0.784414,-5.756,0.331947,0.578197,0.607981,Once
1,'Zero 7',0.684285,0.49212,-9.403,0.270807,0.617406,0.709477,Once
1,'Jorge Drexler',0.525883,0.717582,-8.478,0.231219,0.562271,0.549936,Once
1,'Angie Stone',0.735463,0.730748,-6.798,0.128063,0.593066,0.607474,Once
1,Coldplay,0.428619,0.729982,-4.747,0.687581,0.949954,0.881036,Once
1,'Angie Stone',0.414876,0.415892,-7.298,0.142846,0.593066,0.607474,Repeat
1,'Foo Fighters',0.520315,0.541885,-8.889,0.330088,0.797408,0.822081,Repeat
1,'Zero 7',0.57273,0.669085,-9.964,0.282401,0.617406,0.709477,Once
1,'Home Grown',0.445471,0.90345,-4.895,0.292249,0.469128,0.430959,Repeat
1,Muse,0.083788,0.21138,-11.414,0.382593,0.807055,0.82044,Repeat
1,'Lily Allen',0.543388,0.916789,-6.63,0.380529,0.805032,0.765911,Once
1,'Erykah Badu',0.826412,0.806535,-6.423,0.221116,0.624699,0.76823,Repeat
1,'Jorge Drexler',0.597354,0.245393,-12.188,0.243877,0.562271,0.549936,Repeat
1,'Jorge Drexler',0.727141,0.543866,-7.407,0.247121,0.562271,0.549936,Once
1,Travis,0.376307,0.684389,-6.928,0.29985,0.747539,0.685145,Once
1,'Jorge Drexler',0.865119,0.360493,-13.33,0.144452,0.562271,0.549936,Once
1,'Holy Fuck',0.605807,0.818595,-5.279,0.378563,0.562328,0.58819,Once
1,Muse,0.58707,0.835041,-8.759,0.31995,0.807055,0.82044,Once
1,'Ras Shiloh',0.587519,0.623888,-7.044,0.237068,0.48634,0.368506,Once
1,'Jorge Drexler',0.666559,0.850976,-5.77,0.30954,0.562271,0.549936,Once
1,'Erykah Badu',0.573747,0.578202,-5.374,0.218559,0.624699,0.76823,Repeat
1,'Angie Stone',0.545216,0.769862,-5.967,0.127697,0.593066,0.607474,Repeat
1,'Snow Patrol',0.643446,0.32543,-9.891,0.496052,0.672856,0.74156,Once
1,'Calle 13',0.450797,0.373795,-9.441,0.264667,0.780907,0.65399,Once
1,Maxwell,0.497515,0.367216,-13.117,0.205204,0.609123,0.660512,Repeat
1,Train,0.521597,0.918091,-4.154,0.182904,0.856842,0.679334,Once
1,'Syd Barrett',0.305199,0.32564,-16.997,0.371975,0.581745,0.715034,Once
1,'Angie Stone',0.498365,0.743,-6.112,0.198633,0.593066,0.607474,Repeat
1,'Erykah Badu',0.517173,0.587731,-10.343,0.284471,0.624699,0.76823,Repeat
1,Maxwell,0.656374,0.741232,-11.505,0.193571,0.609123,0.660512,Loved
1,'Julian Casablancas',0.258366,0.752764,-3.548,0.411249,0.596559,0.642023,Repeat
1,'Aretha Franklin',0.447697,0.547934,-9.592,0.197479,0.624227,0.786688,Repeat
1,'P. Diddy',0.62139,0.407988,-7.432,0.257617,0.672076,0.728369,Repeat
1,'The Clash',0.28903,0.839459,-7.047,0.322688,0.660552,0.833122,Repeat
1,'The Lonely Island',0.494476,0.798416,-3.41,0.301974,0.611292,0.635586,Repeat
1,'Zero 7',0.471805,0.776774,-6.178,0.376447,0.617406,0.709477,Once
1,'Snow Patrol',0.227093,0.267779,-12.412,0.310345,0.672856,0.74156,Once
1,'Angie Stone',0.635331,0.628945,-5.728,0.166091,0.593066,0.607474,Repeat
1,Train,0.443796,0.480328,-7.716,0.159706,0.856842,0.679334,Once
1,'Linkin Park',0.734707,0.581688,-9.42,0.410804,0.860044,0.834811,Repeat
1,'Jorge Drexler',0.599787,0.305291,-12.073,0.228615,0.562271,0.549936,Once
1,'Linkin Park',0.589323,0.970376,-4.526,0.344097,0.860044,0.834811,Repeat
1,'Cat Power',0.332351,0.064495,-13.776,0.283947,0.626985,0.734752,Once
1,Seal,0.624917,0.838968,-4.755,0.474392,0.700046,0.667101,Once
1,'Angie Stone',0.649219,0.676673,-5.824,0.127271,0.593066,0.607474,Repeat
1,'The Octopus Project',0.424883,0.738905,-7.437,0.203911,0.533527,0.533968,Once
1,'Fiona Apple',0.690795,0.400604,-9.769,0.375059,0.657758,0.726322,Once
1,'Julian Casablancas',0.393492,0.757122,-4.575,0.248348,0.596559,0.642023,Repeat
1,'Lily Allen',0.594966,0.862311,-7.307,0.150967,0.805032,0.765911,Once
1,Silverstein,0.459105,0.677081,-14.029,0.23166,0.595276,0.627412,Repeat
1,'Erykah Badu',0.573354,0.376974,-11.497,0.330754,0.624699,0.76823,Repeat
1,'Erykah Badu',0.737293,0.529827,-9.796,0.255,0.624699,0.76823,Repeat
1,'Zero 7',0.688963,0.452192,-12.334,0.385177,0.617406,0.709477,Once
1,'Jorge Drexler',0.419402,0.66912,-8.717,0.327856,0.562271,0.549936,Once
1,'Jorge Drexler',0.718653,0.61223,-6.101,0.266371,0.562271,0.549936,Once
1,'Erykah Badu',0.489706,0.585421,-9.475,0.291649,0.624699,0.76823,Repeat
1,'Bo Diddley',0.69351,0.648669,-3.663,0.263286,0.576026,0.683438,Repeat
1,'Lily Allen',0.670438,0.936136,-6.017,0.287504,0.805032,0.765911,Once
1,'Cat Power',0.497053,0.076627,-11.47,0.560691,0.626985,0.734752,Once
1,'Jorge Drexler',0.513268,0.2102,-17.007,0.198857,0.562271,0.549936,Once
1,'Snow Patrol',0.396406,0.905909,-4.648,0,0.672856,0.74156,Once
1,'LANDA DANIEL',0.446804,0.694469,-7.945,0.041556,0.445087,0.224982,Loved
1,'Snow Patrol',0.447715,0.706574,-6.332,0.33686,0.672856,0.74156,Once
1,Travis,0.496473,0.536061,-9.561,0.197073,0.747539,0.685145,Once
1,'Zero 7',0.435663,0.474295,-13.429,0.230383,0.617406,0.709477,Once
1,Muse,0.252978,0.97687,-4.911,0.148977,0.807055,0.82044,Once
1,Seal,0.63814,0.617238,-5.914,0.379765,0.700046,0.667101,Repeat
1,Eat,0.344662,0.489816,-6.728,0.131729,0.392544,0.295423,Once
1,'Tame Impala',0.676624,0.671541,-8.084,0.179602,0.76683,0.658057,Repeat
1,'Mayday Parade',0.42154,0.875971,-3.644,0.36981,0.629003,0.663647,Once
1,'Francesco Guccini',0.577392,0.569775,-5.002,0.197724,0.538834,0.524914,Once
1,'John Scofield',0.735708,0.683141,-8.044,0.157512,0.580353,0.640046,Once
1,'The Out Crowd',0.57291,0.820815,-5.402,0.048438,0.45166,0.354053,Once
1,Incubus,0.484073,0.797207,-6.919,0.313691,0.624746,0.789907,Once
1,'Gang Starr',0.800608,0.831661,-4.686,0.490744,0.569117,0.650074,Once
1,JoJo,0.705023,0.787633,-6.233,0.149122,0.7569,0.677188,Once
1,'The Kills',0.803369,0.702051,-5.148,0.452021,0.598535,0.674192,Repeat
1,'Die Mooskirchner',0.743124,0.729466,-10.054,0.009551,0.413078,0.155882,Once
1,'The All-American Rejects',0.444106,0.951108,-3.646,0.610958,0.612991,0.64182,Repeat
1,Natiruts,0.857473,0.584331,-9.175,0.065865,0.702182,0.503276,Repeat
1,'Five Iron Frenzy',0.375187,0.954834,-5.809,0.107421,0.542984,0.529849,Repeat
1,'Thousand Foot Krutch',0.782936,0.854126,-4.023,0.153775,0.680151,0.644123,Once
1,Moose,0.163978,0.605637,-11.295,0.069125,0.481955,0.531178,Once
1,'Mercyful Fate',0.340079,0.94741,-7.424,0.251289,0.576024,0.630091,Repeat
1,'Palm Skin Productions',0.421476,0.045196,-27.298,0.041556,0.417279,0.322826,Repeat
1,'Cass McCombs',0.298519,0.591394,-9.033,0.108717,0.570339,0.568828,Once
1,'Drowning Pool',0.173073,0.800282,-6.598,0.268002,0.62078,0.652407,Once
1,'Christina Aguilera',0.690592,0.665573,-6.45,0.245119,0.716011,0.809097,Once
1,ATB,0.718337,0.694771,-5.401,0.137313,0.736619,0.653438,Repeat
1,Pavement,0.273745,0.718034,-5.028,0.181467,0.581768,0.71565,Repeat
1,Fisher,0.732375,0.049749,-13.086,0.107421,0.476755,0.488692,Once
1,'Lindsay Lohan',0.602603,0.750204,-4.724,0.306527,0.615753,0.695075,Once
1,R?yksopp,0.658161,0.919419,-7.144,0.372685,0.712916,0.748527,Repeat
1,Terrorizer,0.230434,0.950804,-14.216,0.170898,0.521486,0.586076,Once
1,'Lindsay Lohan',0.556651,0.901475,-3.451,0.245578,0.615753,0.695075,Once
1,Incubus,0.597587,0.788853,-5.361,0.353791,0.624746,0.789907,Repeat
1,Naast,0.242538,0.928799,-5.163,0.067465,0.446098,0.48625,Once
1,Lovex,0.464715,0.864678,-4.478,0.115513,0.51375,0.387267,Once
1,'Pearl Jam',0.416109,0.927825,-4.479,0.194069,0.7823,0.836102,Once
1,'Garnett Silk',0.685564,0.580497,-9.421,0.057743,0.491033,0.52513,Loved
1,Teoman,0.587729,0.760749,-5.808,0.239446,0.583973,0.475547,Loved
1,'Kings of Leon',0.441646,0.734173,-6.853,0.466736,0.818382,0.793128,Once
1,'Old Crow Medicine Show',0.635035,0.404423,-8.213,0.598218,0.738669,0.674582,Once
1,Sammie,0.722324,0.745609,-4.563,0.216502,0.522001,0.520721,Once
1,'Lindsay Lohan',0.623418,0.865235,-4.458,0.344605,0.615753,0.695075,Once
1,'Green Day',0.2272,0.991311,-4.498,0.293641,0.814519,0.844636,Once
1,'El Otro Yo',0.68601,0.795375,-7.082,0.204491,0.543803,0.46281,Repeat
1,Incubus,0.384918,0.770168,-7.95,0.254064,0.624746,0.789907,Once
1,Flyleaf,0.4142,0.961322,-4.922,0.307936,0.601001,0.675219,Once
1,'Bar?o Vermelho',0.77847,0.703172,-9.187,0.377871,0.543235,0.453829,Repeat
1,Hypasonic,0.46771,0.99458,-4.485,0,0.419726,0.251851,Once
1,'Switchblade Symphony',0.474988,0.640238,-10.861,0.290145,0.529352,0.457884,Once
1,'Finger Eleven',0.364122,0.83541,-5.835,0.1955,0.565215,0.567922,Repeat
1,'Finger Eleven',0.505672,0.734742,-6.372,0.239576,0.565215,0.567922,Loved
1,CKY,0.335449,0.87028,-4.442,0.330808,0.581409,0.575196,Once
1,'Within Temptation',0.283557,0.590425,-6.468,0.317123,0.767588,0.703785,Loved
1,'Maya Saban',0.634355,0.490084,-7.186,0,0.427868,0.322142,Repeat
1,'Alicia Keys',0.743154,0.552214,-9.129,0.269766,0.812304,0.81851,Repeat
1,'Tania Libertad',0.346217,0.187953,-18.68,0,0.480519,0.380842,Once
1,'KT Tunstall',0.618839,0.165165,-12.06,0.334143,0.593015,0.660614,Once
1,'Pale Saints',0.259101,0.779032,-11.585,0.161479,0.518924,0.547977,Once
1,Hoobastank,0.341133,0.837514,-4.274,0.195191,0.614442,0.64269,Once
1,'Finger Eleven',0.61356,0.937895,-4.034,0.252142,0.565215,0.567922,Once
1,'The Veronicas',0.517707,0.861347,-4.083,0.298035,0.567143,0.622159,Repeat
1,Covenant,0.668434,0.792416,-11.133,0.172232,0.570173,0.543787,Repeat
1,'A Perfect Circle',0.676499,0.451165,-9.817,0.51032,0.611795,0.742535,Loved
1,'Rage Against the Machine',0.55769,0.953786,-3.199,0.313895,0.761373,0.78988,Once
1,'Finger Eleven',0.389617,0.643422,-7.371,0.288516,0.565215,0.567922,Repeat
1,'Billy Currington',0.577965,0.68905,-5.618,0.107421,0.778925,0.605663,Once
1,'Lonnie Gordon',0.623019,0.950126,-5.709,0,0.452245,0.357867,Once
1,Sugarland,0.741368,0.594557,-4.954,0.190902,0.593269,0.673838,Once
1,'Jack Johnson',0.598472,0.154183,-18,0.404799,0.75659,0.736065,Once
1,'Bombay Bicycle Club',0.313093,0.929532,-5.307,0.349007,0.765422,0.666822,Repeat
1,'Kimya Dawson',0.650897,0.628922,-9.298,0.287881,0.550155,0.566074,Once
1,'Ryan Adams',0.51907,0.912672,-3.139,0.252811,0.765167,0.753673,Repeat
1,'Beach House',0.446348,0.208038,-17.635,0.298555,0.716677,0.68016,Once
1,'She & Him',0.565101,0.377371,-8.495,0.424559,0.62602,0.626788,Repeat
1,'Jamie Woon',0.477695,0.227317,-12.106,0.433001,0.591082,0.540855,Repeat
1,'Bombay Bicycle Club',0.528136,0.801775,-7.608,0.278273,0.765422,0.666822,Repeat
1,'Belle and Sebastian',0.572854,0.831845,-3.685,0.435523,0.618236,0.736177,Once
1,'Belle and Sebastian',0.605631,0.696708,-6.89,0.457728,0.618236,0.736177,Repeat
1,'She & Him',0.419294,0.555149,-7.654,0.307503,0.62602,0.626788,Repeat
1,'Laura Marling',0.466567,0.361094,-11.629,0.481217,0.603228,0.64005,Once
1,'Bon Iver',0.493357,0.320738,-17.866,0.477629,0.778569,0.764807,Once
1,'Hindi Zahra',0.795242,0.833828,-6.748,0.416698,0.578677,0.417599,Repeat
1,'Elvis Costello',0.393223,0.890944,-8.543,0.231785,0.700699,0.771238,Once
1,'Beach House',0.638581,0.552481,-6.524,0.505168,0.716677,0.68016,Repeat
1,'Badly Drawn Boy',0.530868,0.436556,-7.769,0.32645,0.542729,0.603156,Once
1,'The Black Box Revelation',0.359788,0.878814,-4.593,0.185316,0.513313,0.438126,Repeat
1,'Florence + The Machine',0.578671,0.680593,-5.891,0.204197,0.765103,0.685401,Repeat
1,'Someone Still Loves You Boris Yeltsin',0.591007,0.554284,-8.792,0.181515,0.5552,0.529058,Repeat
1,'The Kooks',0.50883,0.838135,-5.381,0.439732,0.807711,0.746253,Once
1,'She & Him',0.5558,0.444,-9.399,0.234887,0.62602,0.626788,Repeat
1,'Andrew Bird',0.660885,0.770354,-9.314,0.182499,0.601306,0.712104,Once
1,Beirut,0.456024,0.46583,-5.885,0.325086,0.6133,0.666006,Once
1,Efterklang,0.549464,0.611105,-11.316,0.451512,0.578171,0.596452,Once
1,Vetiver,0.674262,0.324034,-8.502,0.150558,0.467512,0.48435,Once
1,'Dirty Projectors',0.422607,0.50499,-11.71,0.248281,0.590411,0.654198,Once
1,'She & Him',0.268001,0.132331,-9.225,0.282624,0.62602,0.626788,Repeat
1,Kyte,0.500644,0.724427,-9.088,0.160735,0.551967,0.453898,Once
1,'Watashi Wa',0.495706,0.831773,-4.971,0.010119,0.42483,0.374157,Once
1,'First Aid Kit',0.404992,0.240799,-10.375,0.256687,0.803814,0.614079,Once
1,'Handsome Furs',0.394332,0.915801,-5.498,0.228852,0.530328,0.524898,Once
1,'She & Him',0.54265,0.735166,-5.584,0.371907,0.62602,0.626788,Repeat
1,'Allo, Darlin\'',0.453622,0.640744,-7.408,0.279298,0.525053,0.280787,Loved
1,'Bobby McFerrin',0.420884,0.49851,-14.927,0,0.59466,0.660294,Repeat
1,Bowerbirds,0.684879,0.203917,-11.978,0.174473,0.558147,0.503489,Repeat
1,'Ryan Adams',0.526817,0.775285,-5.011,0.250176,0.765167,0.753673,Once
1,'Ryan Adams',0.590576,0.206487,-13.017,0.442186,0.765167,0.753673,Repeat
1,'Someone Still Loves You Boris Yeltsin',0.742055,0.409794,-11.376,0.199887,0.5552,0.529058,Once
1,'The Kooks',0.2452,0.857585,-6.152,0.358141,0.807711,0.746253,Repeat
1,'She & Him',0.555472,0.695746,-4.794,0.331577,0.62602,0.626788,Repeat
1,Walela,0.22034,0.128082,-13.17,0.041556,0.427134,0.326109,Once
1,'She & Him',0.510046,0.805675,-6.642,0.437009,0.62602,0.626788,Repeat
1,'She & Him',0.530461,0.279588,-7.957,0.399714,0.62602,0.626788,Repeat
1,'First Aid Kit',0.453035,0.100986,-11.274,0.269065,0.803814,0.614079,Once
1,'Bon Iver',0.450901,0.147729,-17.03,0.566435,0.778569,0.764807,Once
1,'The Acorn',0.55007,0.176188,-13.03,0.173285,0.549369,0.511412,Once
1,'Kings of Convenience',0.652127,0.268668,-11.796,0.293337,0.60752,0.669071,Repeat
1,'Florence + The Machine',0.659442,0.460725,-4.602,0.291156,0.765103,0.685401,Once
1,'Erlend ?ye',0.824114,0.78917,-7.009,0.320863,0.635149,0.574542,Repeat
1,Caribou,0.689721,0.814963,-7.372,0.502695,0.783193,0.658792,Once
1,'Someone Still Loves You Boris Yeltsin',0.602172,0.726405,-7.633,0.23474,0.5552,0.529058,Repeat
1,'Hindi Zahra',0.623679,0.398378,-10.764,0.317007,0.578677,0.417599,Repeat
1,'Someone Still Loves You Boris Yeltsin',0.653984,0.488895,-8.647,0.239033,0.5552,0.529058,Repeat
1,'The Kooks',0.343374,0.865733,-5.52,0.433487,0.807711,0.746253,Repeat
1,'She & Him',0.314275,0.892676,-5.766,0.426425,0.62602,0.626788,Repeat
1,'The Black Keys',0.199276,0.738225,-7.634,0.368872,0.84268,0.800241,Once
1,Beirut,0.616886,0.560226,-7.329,0.548037,0.6133,0.666006,Repeat
1,'She & Him',0.558637,0.335643,-7.033,0.323904,0.62602,0.626788,Repeat
1,'Bee Gees',0.526184,0.419409,-8.104,0.317505,0.749852,0.757857,Repeat
1,'She & Him',0.644966,0.510038,-7.717,0.39294,0.62602,0.626788,Repeat
1,'The Dodos',0.409751,0.900306,-6.182,0.337149,0.558205,0.58761,Repeat
1,Efterklang,0.53438,0.575903,-9.139,0.155718,0.578171,0.596452,Repeat
1,Eels,0.472149,0.384474,-9.619,0.464133,0.616124,0.726507,Once
1,'The Whitest Boy Alive',0.750018,0.307669,-9.863,0.245472,0.743823,0.600382,Once
1,'Arctic Monkeys',0.518534,0.885867,-4.171,0.487803,0.884583,0.817253,Once
1,'Jonas Steur',0.554283,0.822907,-11.505,0.062805,0.496283,0.407051,Once
1,Puppetmastaz,0.84769,0.722525,-6.805,0.222983,0.510633,0.435381,Repeat
1,'Old Crow Medicine Show',0.604128,0.592425,-7.005,0.404284,0.738669,0.674582,Repeat
1,'The Octopus Project',0.300297,0.235113,-15.606,0.107653,0.533527,0.533968,Repeat
1,'Tony Trischka',0.442976,0.172476,-20.023,0,0.448157,0.47802,Repeat
1,Yahel,0.69807,0.896612,-6.987,0.20359,0.576217,0.507168,Once
1,Rammstein,0.623322,0.733598,-6.754,0.489221,0.652456,0.745444,Repeat
1,Lange,0.756132,0.800578,-10.776,0,0.517159,0.485549,Once
1,'The Grascals',0.616075,0.348481,-8.257,0,0.498424,0.478059,Repeat
1,'Four Tet',0.611298,0.564756,-8.95,0.274518,0.596409,0.718798,Once
1,'The Country Gentlemen',0.613031,0.25038,-13.786,0.041556,0.508893,0.454449,Once
1,'Johan Gielen',0.681035,0.731399,-10.286,0.119002,0.484266,0.522317,Once
1,'Louis XIV',0.633084,0.835643,-6.334,0.22081,0.475679,0.540009,Once
1,Saliva,0.513359,0.894157,-3.661,0.213751,0.726445,0.623537,Repeat
1,'Natalie Cole',0.7587,0.685624,-6.063,0.042566,0.590603,0.634076,Once
1,'Blue Highway',0.633568,0.35951,-7.311,0.058919,0.536414,0.491752,Repeat
1,'Four Tet',0.806875,0.454131,-12.412,0.298195,0.596409,0.718798,Once
1,ATB,0.589794,0.921517,-7.44,0.305054,0.736619,0.653438,Once
1,'Four Tet',0.745085,0.516755,-8.092,0.251265,0.596409,0.718798,Once
1,'Caetano Veloso',0.549295,0.766743,-8.256,0,0.625502,0.685127,Once
1,Orphanage,0.419891,0.801245,-6.72,0.083112,0.427836,0.33563,Repeat
1,'The Fratellis',0.12137,0.905704,-4.604,0.171598,0.724962,0.631255,Once
1,'The Fratellis',0.388287,0.939554,-3.456,0.33606,0.724962,0.631255,Once
1,'The Del McCoury Band',0.560348,0.48829,-12.752,0.051435,0.536525,0.551533,Once
1,'Old Crow Medicine Show',0.519082,0.399953,-9.74,0.239888,0.738669,0.674582,Repeat
1,'Gordon Lightfoot',0.501186,0.432296,-12.535,0.12162,0.59172,0.668794,Once
1,'Old Crow Medicine Show',0.382519,0.73536,-7.476,0.379901,0.738669,0.674582,Repeat
1,'Old Crow Medicine Show',0.635035,0.404423,-8.213,0.598218,0.738669,0.674582,Repeat
1,'Ryan Adams',0.532851,0.479553,-7.269,0.124407,0.765167,0.753673,Once
1,'Big Shug',0.576551,0.790133,-6.313,0,0.469731,0.454505,Loved
1,'Smile Empty Soul',0.519496,0.559579,-6.071,0.186325,0.563355,0.54776,Repeat
1,'Drowning Pool',0.462084,0.927492,-5.715,0.343415,0.62078,0.652407,Once
1,'Old Crow Medicine Show',0.626302,0.797226,-4.518,0.262683,0.738669,0.674582,Repeat
1,Air,0.568379,0.487361,-12.593,0.365222,0.608459,0.726864,Once
1,'Old Crow Medicine Show',0.613435,0.234717,-11.173,0.271926,0.738669,0.674582,Repeat
1,'Above & Beyond',0.538716,0.838592,-8.66,0.25839,0.75621,0.707756,Once
1,'Old Crow Medicine Show',0.521527,0.630756,-6.733,0.247248,0.738669,0.674582,Repeat
1,'Old Crow Medicine Show',0.664882,0.776892,-4.614,0.35073,0.738669,0.674582,Repeat
1,'Alison Krauss',0.470785,0.310299,-9.747,0.099013,0.588325,0.677059,Once
1,'The Country Gentlemen',0.565186,0.55077,-10.829,0.041556,0.508893,0.454449,Once
1,'The Gits',0.359824,0.714178,-9.439,0.206658,0.504865,0.487275,Once
1,Epica,0.613827,0.966222,-5.098,0.030363,0.607545,0.681377,Repeat
1,'Mateo Messina',0.739809,0.47517,-11.192,0.108076,0.418292,0.371915,Loved
1,'Catupecu Machu',0.721112,0.854348,-4.927,0.079274,0.697728,0.498475,Repeat
1,'Mika Miko',0.387355,0.990424,-4.983,0.114824,0.478883,0.423521,Once
1,'Ralph Stanley',0.46637,0.064112,-22.448,0.055855,0.546621,0.57165,Once
1,'Cage the Elephant',0.397048,0.812604,-6.176,0.291748,0.739805,0.687754,Once
1,'Doc Watson',0.6365,0.574792,-12.088,0.14828,0.556978,0.609833,Once
1,'The Grascals',0.352482,0.650183,-6.201,0.030534,0.498424,0.478059,Once
1,'Wir sind Helden',0.528246,0.931118,-3.498,0.197883,0.563367,0.531105,Once
1,'Old Crow Medicine Show',0.417791,0.185567,-10.218,0.229311,0.738669,0.674582,Repeat
1,'The Grascals',0.436772,0.453167,-8.95,0.094267,0.498424,0.478059,Once
1,Television,0.66931,0.738032,-12.313,0.1467,0.576767,0.671037,Once
1,Fastway,0.513732,0.606898,-11.306,0.235378,0.514584,0.437904,Once
1,Ween,0.701332,0.540238,-12.701,0.287086,0.585799,0.669757,Once
1,Television,0.647648,0.498036,-11.947,0.225804,0.576767,0.671037,Repeat
1,Television,0.674401,0.650715,-10.485,0.335403,0.576767,0.671037,Once
1,'Ryan Bingham',0.658467,0.511894,-7.139,0.252426,0.567009,0.543826,Repeat
1,'The Cure',0.510397,0.777324,-7.087,0.27551,0.744114,0.819183,Once
1,'Brant Bjork',0.757513,0.514287,-12.485,0.174582,0.517646,0.53037,Once
1,Moby,0.695826,0.022681,-17.196,0.179868,0.770289,0.784282,Once
1,'Flight of the Conchords',0.824907,0.692955,-10.223,0.547459,0.585903,0.662617,Repeat
1,'The Black Keys',0.612849,0.359837,-11.561,0.323244,0.84268,0.800241,Once
1,Ween,0.626018,0.664275,-9.837,0.312882,0.585799,0.669757,Once
1,'Ryan Bingham',0.56898,0.671786,-8.074,0.330448,0.567009,0.543826,Repeat
1,Morcheeba,0.6271,0.624168,-9.252,0.471727,0.623212,0.681738,Once
1,'Jane\'s Addiction',0.301981,0.028472,-19.918,0.309488,0.601172,0.734324,Repeat
1,Television,0.552487,0.821171,-11.558,0.206836,0.576767,0.671037,Once
1,Moby,0.443576,0.101175,-19.765,0.185766,0.770289,0.784282,Once
1,'Gogol Bordello',0.563515,0.738382,-4.252,0.344211,0.698341,0.684595,Once
1,'Tears for Fears',0.6043,0.671267,-10.072,0.532016,0.632853,0.727748,Repeat
1,Kelis,0.856422,0.463506,-6.557,0.160754,0.607114,0.711191,Once
1,Morcheeba,0.638739,0.688573,-4.638,0.277008,0.623212,0.681738,Once
1,Moby,0.636779,0.34315,-14.431,0.178066,0.770289,0.784282,Once
1,Metallica,0.58409,0.797484,-6.584,0.405497,0.820659,0.864243,Once
1,Television,0.719765,0.719483,-9.676,0.206426,0.576767,0.671037,Once
1,'Neil Young',0.696044,0.316815,-21.181,0.297947,0.629804,0.850111,Repeat
1,Morcheeba,0.701529,0.846293,-4.326,0.225963,0.623212,0.681738,Once
1,'The Little Willies',0.66587,0.389763,-11.311,0.211414,0.511743,0.460163,Once
1,Ween,0.504376,0.831904,-5.639,0.299906,0.585799,0.669757,Repeat
1,'PJ Harvey',0.619733,0.739676,-8.567,0.535128,0.60423,0.761345,Once
1,'Flight of the Conchords',0.734201,0.264016,-10.596,0.360234,0.585903,0.662617,Repeat
1,'Beastie Boys',0.750413,0.854848,-9.984,0.341555,0.668952,0.805404,Once
1,Moby,0.652263,0.525333,-27.137,0.205626,0.770289,0.784282,Once
1,'Belle and Sebastian',0.505687,0.773131,-7.596,0.416831,0.618236,0.736177,Repeat
1,Morcheeba,0.613178,0.710364,-6.358,0.295802,0.623212,0.681738,Once
1,'Code 64',0.509615,0.905051,-7.714,0.083112,0.497129,0.399192,Once
1,'The Black Keys',0.447666,0.521624,-8.517,0.365933,0.84268,0.800241,Repeat
1,Television,0.547639,0.643134,-10.655,0.467976,0.576767,0.671037,Once
1,'Good Old War',0.461488,0.498094,-6.248,0.186001,0.519182,0.524786,Repeat
1,'The Black Keys',0.307748,0.70871,-8.582,0.409399,0.84268,0.800241,Once
1,'Daniel Johnston',0.492085,0.545036,-10.214,0.134198,0.535287,0.647873,Repeat
1,Morcheeba,0.612102,0.805048,-5.239,0.494916,0.623212,0.681738,Repeat
1,'Ryan Bingham',0.583145,0.936963,-5.851,0.206183,0.567009,0.543826,Repeat
1,Blur,0.44348,0.661137,-8.035,0.427428,0.742654,0.781663,Once
1,Television,0.531821,0.592037,-10.215,0.398501,0.576767,0.671037,Once
1,'The Black Keys',0.710119,0.473009,-8.648,0.423831,0.84268,0.800241,Repeat
1,Ween,0.714124,0.531946,-6.923,0.257037,0.585799,0.669757,Repeat
1,'Flight of the Conchords',0.681593,0.692075,-7.069,0.399431,0.585903,0.662617,Repeat
1,Television,0.579139,0.767299,-8.871,0.388965,0.576767,0.671037,Once
1,Ween,0.816264,0.380451,-14.451,0.220232,0.585799,0.669757,Once
1,Television,0.413425,0.828807,-6.68,0.470954,0.576767,0.671037,Once
1,Ween,0.758568,0.197769,-14.315,0.370762,0.585799,0.669757,Once
1,'No Doubt',0.581938,0.792123,-5.4,0.538114,0.615019,0.736806,Once
1,Morcheeba,0.85659,0.372798,-10.558,0.297367,0.623212,0.681738,Repeat
1,'Flight of the Conchords',0.798733,0.679672,-6.34,0.323013,0.585903,0.662617,Repeat
1,Morcheeba,0.575116,0.82253,-5.136,0.241883,0.623212,0.681738,Repeat
1,Morcheeba,0.762801,0.762781,-4.581,0.348828,0.623212,0.681738,Repeat
