@relation SoloGradeSongs

@attribute artist string
@attribute dancebility numeric
@attribute energy numeric
@attribute loudness numeric
@attribute songHotness numeric
@attribute artistHotness numeric
@attribute artistFamiliarity numeric
@attribute preference {Once,Repeat,Loved}

@data
Television,0.66931,0.738032,-12.313,0.1467,0.576767,0.671037,Once
Fastway,0.513732,0.606898,-11.306,0.235378,0.514584,0.437904,Once
Ween,0.701332,0.540238,-12.701,0.287086,0.585799,0.669757,Once
Television,0.647648,0.498036,-11.947,0.225804,0.576767,0.671037,Repeat
Television,0.674401,0.650715,-10.485,0.335403,0.576767,0.671037,Once
'Ryan Bingham',0.658467,0.511894,-7.139,0.252426,0.567009,0.543826,Repeat
'The Cure',0.510397,0.777324,-7.087,0.27551,0.744114,0.819183,Once
'Brant Bjork',0.757513,0.514287,-12.485,0.174582,0.517646,0.53037,Once
Moby,0.695826,0.022681,-17.196,0.179868,0.770289,0.784282,Once
'Flight of the Conchords',0.824907,0.692955,-10.223,0.547459,0.585903,0.662617,Repeat
'The Black Keys',0.612849,0.359837,-11.561,0.323244,0.84268,0.800241,Once
Ween,0.626018,0.664275,-9.837,0.312882,0.585799,0.669757,Once
'Ryan Bingham',0.56898,0.671786,-8.074,0.330448,0.567009,0.543826,Repeat
Morcheeba,0.6271,0.624168,-9.252,0.471727,0.623212,0.681738,Once
'Jane\'s Addiction',0.301981,0.028472,-19.918,0.309488,0.601172,0.734324,Repeat
Television,0.552487,0.821171,-11.558,0.206836,0.576767,0.671037,Once
Moby,0.443576,0.101175,-19.765,0.185766,0.770289,0.784282,Once
'Gogol Bordello',0.563515,0.738382,-4.252,0.344211,0.698341,0.684595,Once
'Tears for Fears',0.6043,0.671267,-10.072,0.532016,0.632853,0.727748,Repeat
Kelis,0.856422,0.463506,-6.557,0.160754,0.607114,0.711191,Once
Morcheeba,0.638739,0.688573,-4.638,0.277008,0.623212,0.681738,Once
Moby,0.636779,0.34315,-14.431,0.178066,0.770289,0.784282,Once
Metallica,0.58409,0.797484,-6.584,0.405497,0.820659,0.864243,Once
Television,0.719765,0.719483,-9.676,0.206426,0.576767,0.671037,Once
'Neil Young',0.696044,0.316815,-21.181,0.297947,0.629804,0.850111,Repeat
Morcheeba,0.701529,0.846293,-4.326,0.225963,0.623212,0.681738,Once
'The Little Willies',0.66587,0.389763,-11.311,0.211414,0.511743,0.460163,Once
Ween,0.504376,0.831904,-5.639,0.299906,0.585799,0.669757,Repeat
'PJ Harvey',0.619733,0.739676,-8.567,0.535128,0.60423,0.761345,Once
'Flight of the Conchords',0.734201,0.264016,-10.596,0.360234,0.585903,0.662617,Repeat
'Beastie Boys',0.750413,0.854848,-9.984,0.341555,0.668952,0.805404,Once
Moby,0.652263,0.525333,-27.137,0.205626,0.770289,0.784282,Once
'Belle and Sebastian',0.505687,0.773131,-7.596,0.416831,0.618236,0.736177,Repeat
Morcheeba,0.613178,0.710364,-6.358,0.295802,0.623212,0.681738,Once
'Code 64',0.509615,0.905051,-7.714,0.083112,0.497129,0.399192,Once
'The Black Keys',0.447666,0.521624,-8.517,0.365933,0.84268,0.800241,Repeat
Television,0.547639,0.643134,-10.655,0.467976,0.576767,0.671037,Once
'Good Old War',0.461488,0.498094,-6.248,0.186001,0.519182,0.524786,Repeat
'The Black Keys',0.307748,0.70871,-8.582,0.409399,0.84268,0.800241,Once
'Daniel Johnston',0.492085,0.545036,-10.214,0.134198,0.535287,0.647873,Repeat
Morcheeba,0.612102,0.805048,-5.239,0.494916,0.623212,0.681738,Repeat
'Ryan Bingham',0.583145,0.936963,-5.851,0.206183,0.567009,0.543826,Repeat
Blur,0.44348,0.661137,-8.035,0.427428,0.742654,0.781663,Once
Television,0.531821,0.592037,-10.215,0.398501,0.576767,0.671037,Once
'The Black Keys',0.710119,0.473009,-8.648,0.423831,0.84268,0.800241,Repeat
Ween,0.714124,0.531946,-6.923,0.257037,0.585799,0.669757,Repeat
'Flight of the Conchords',0.681593,0.692075,-7.069,0.399431,0.585903,0.662617,Repeat
Television,0.579139,0.767299,-8.871,0.388965,0.576767,0.671037,Once
Ween,0.816264,0.380451,-14.451,0.220232,0.585799,0.669757,Once
Television,0.413425,0.828807,-6.68,0.470954,0.576767,0.671037,Once
Ween,0.758568,0.197769,-14.315,0.370762,0.585799,0.669757,Once
'No Doubt',0.581938,0.792123,-5.4,0.538114,0.615019,0.736806,Once
Morcheeba,0.85659,0.372798,-10.558,0.297367,0.623212,0.681738,Repeat
'Flight of the Conchords',0.798733,0.679672,-6.34,0.323013,0.585903,0.662617,Repeat
Morcheeba,0.575116,0.82253,-5.136,0.241883,0.623212,0.681738,Repeat
Morcheeba,0.762801,0.762781,-4.581,0.348828,0.623212,0.681738,Repeat
